 LAPACK VERSION 2.0, released September 30, 1994 

 BLAS timing, COMPLEX data, K small

    M:          10    20    40    60    80
    N:          10    20    40    60    80
    K:           2    16
    INCX:        1
    LDA:        81
 
 The minimum time a subroutine will be timed =  0.050 seconds
 

 ------------------------------
 >>>>>    Timing data     <<<<<
 ------------------------------

 *** Speed of CGEMV  in megaflops ***
     with LDA =    81 and INCX = INCY =     1

 CGEMV  with TRANS = 'N'

         N    10      20      40      60      80
      M
     10      9.8    11.1    11.5    11.4    11.2
     20     11.8    12.4    13.6    11.7    11.9
     40     13.6    13.8    13.3    13.1    13.2
     60     14.6    14.0    13.5    13.4    13.4
     80     15.0    13.7    13.6    13.7    13.7
 

 CGEMV  with TRANS = 'T'

         N    10      20      40      60      80
      M
     10      9.0     9.9    10.2    10.4    10.4
     20     10.8    11.6    11.7    11.8    11.9
     40     12.6    12.7    12.7    12.8    12.7
     60     13.3    13.1    13.0    13.2    13.2
     80     13.5    13.4    13.3    13.4    12.9
 

 CGEMV  with TRANS = 'C'

         N    10      20      40      60      80
      M
     10      8.6     9.8    10.1    10.3    10.3
     20     10.9    11.3    11.6    11.5    11.5
     40     12.4    12.4    12.5    12.5    12.5
     60     13.0    12.8    12.7    12.5    12.6
     80     13.3    13.1    12.9    12.9    12.7
 







 *** Speed of CGBMV  in megaflops ***
     with LDA =    81 and INCX = INCY =     1

 CGBMV  with TRANS = 'N', M = N and KL = KU = K

         N    10      20      40      60      80
      K
      2      6.2     7.6     8.5     8.4     9.1
     16      9.0    11.9    12.7    12.6    12.4
 

 CGBMV  with TRANS = 'T', M = N and KL = KU = K

         N    10      20      40      60      80
      K
      2      6.3     8.1     9.1     9.3     9.6
     16      8.7    11.4    12.1    12.7    12.5
 

 CGBMV  with TRANS = 'C', M = N and KL = KU = K

         N    10      20      40      60      80
      K
      2      6.2     7.9     8.8     9.3     9.8
     16      8.3    11.1    11.8    11.9    12.2
 







 *** Speed of CHEMV  in megaflops ***
     with LDA =    81 and INCX = INCY =     1

 CHEMV  with UPLO = 'U'

         N    10      20      40      60      80
       
             8.9    11.8    12.8    13.1    13.2
 

 CHEMV  with UPLO = 'L'

         N    10      20      40      60      80
       
             7.5    11.0    12.5    12.8    12.9
 







 *** Speed of CHBMV  in megaflops ***
     with LDA =    81 and INCX = INCY =     1

 CHBMV  with UPLO = 'U'

         N    10      20      40      60      80
      K
      2      6.0     7.3     8.0     8.1     8.4
     16      7.6    10.7    11.9    11.9    12.1
 

 CHBMV  with UPLO = 'L'

         N    10      20      40      60      80
      K
      2      5.6     7.0     7.8     8.3     8.3
     16      8.1    11.0    12.0    12.1    12.1
 







 *** Speed of CHPMV  in megaflops ***
     with INCX = INCY =     1

 CHPMV  with UPLO = 'U'

         N    10      20      40      60      80
       
             8.5    11.7    12.9    13.1    13.3
 

 CHPMV  with UPLO = 'L'

         N    10      20      40      60      80
       
             8.3    11.6    13.0    13.1    13.0
 







 *** Speed of CTRMV  in megaflops ***
     with LDA =    81 and INCX =     1

 CTRMV  with UPLO = 'U', TRANS = 'N'

         N    10      20      40      60      80
       
             6.4    10.7    12.6    13.0    13.0
 

 CTRMV  with UPLO = 'U', TRANS = 'T'

         N    10      20      40      60      80
       
             7.7    11.0    12.4    12.9    13.2
 

 CTRMV  with UPLO = 'U', TRANS = 'C'

         N    10      20      40      60      80
       
             7.1    10.6    12.0    12.6    12.8
 

 CTRMV  with UPLO = 'L', TRANS = 'N'

         N    10      20      40      60      80
       
             7.0    10.9    12.6    13.1    13.2
 

 CTRMV  with UPLO = 'L', TRANS = 'T'

         N    10      20      40      60      80
       
             7.8    11.0    12.5    13.1    13.3
 

 CTRMV  with UPLO = 'L', TRANS = 'C'

         N    10      20      40      60      80
       
             7.3    10.7    12.2    12.6    12.8
 







 *** Speed of CTBMV  in megaflops ***
     with LDA =    81 and INCX =     1

 CTBMV  with UPLO = 'U', TRANS = 'N'

         N    10      20      40      60      80
      K
      2      4.0     5.8     6.4     7.2     7.4
     16      6.1    10.3    11.8    11.6    12.0
 

 CTBMV  with UPLO = 'U', TRANS = 'T'

         N    10      20      40      60      80
      K
      2      4.2     5.7     8.2     8.4     8.5
     16      6.7    10.1    11.5    11.9    11.9
 

 CTBMV  with UPLO = 'U', TRANS = 'C'

         N    10      20      40      60      80
      K
      2      3.9     5.7     7.3     8.2     8.2
     16      6.1    10.0    11.2    11.6    10.6
 

 CTBMV  with UPLO = 'L', TRANS = 'N'

         N    10      20      40      60      80
      K
      2      3.9     5.4     6.5     7.4     7.2
     16      5.8    10.0    10.2    11.9    11.5
 

 CTBMV  with UPLO = 'L', TRANS = 'T'

         N    10      20      40      60      80
      K
      2      4.4     6.5     7.4     8.4     8.4
     16      7.0    10.6    12.0    12.1    12.2
 

 CTBMV  with UPLO = 'L', TRANS = 'C'

         N    10      20      40      60      80
      K
      2      4.1     6.2     7.4     7.9     8.0
     16      6.1    10.4    11.2    11.7    11.8
 







 *** Speed of CTPMV  in megaflops ***
     with INCX =     1

 CTPMV  with UPLO = 'U', TRANS = 'N'

         N    10      20      40      60      80
       
             7.3    11.2    13.8    12.8    13.4
 

 CTPMV  with UPLO = 'U', TRANS = 'T'

         N    10      20      40      60      80
       
             7.3    11.0    12.9    13.1    13.3
 

 CTPMV  with UPLO = 'U', TRANS = 'C'

         N    10      20      40      60      80
       
             6.9    10.1    11.9    12.1    12.3
 

 CTPMV  with UPLO = 'L', TRANS = 'N'

         N    10      20      40      60      80
       
             6.6    10.8    13.1    12.8    13.1
 

 CTPMV  with UPLO = 'L', TRANS = 'T'

         N    10      20      40      60      80
       
             7.1    10.3    12.9    13.1    13.3
 

 CTPMV  with UPLO = 'L', TRANS = 'C'

         N    10      20      40      60      80
       
             6.7    10.2    11.8    12.1    12.3
 







 *** Speed of CTRSV  in megaflops ***
     with LDA =    81 and INCX =     1

 CTRSV  with UPLO = 'U', TRANS = 'N'

         N    10      20      40      60      80
       
             5.3     9.2    11.4    12.3    12.9
 

 CTRSV  with UPLO = 'U', TRANS = 'T'

         N    10      20      40      60      80
       
             5.2     8.6    10.5    11.1    11.4
 

 CTRSV  with UPLO = 'U', TRANS = 'C'

         N    10      20      40      60      80
       
             5.2     8.6    10.0    10.5    11.1
 

 CTRSV  with UPLO = 'L', TRANS = 'N'

         N    10      20      40      60      80
       
             5.1     8.0    10.8    11.5    12.2
 

 CTRSV  with UPLO = 'L', TRANS = 'T'

         N    10      20      40      60      80
       
             4.6     7.1     9.0     9.6    10.2
 

 CTRSV  with UPLO = 'L', TRANS = 'C'

         N    10      20      40      60      80
       
             4.9     8.2    10.1    10.7    11.0
 







 *** Speed of CTBSV  in megaflops ***
     with LDA =    81 and INCX =     1

 CTBSV  with UPLO = 'U', TRANS = 'N'

         N    10      20      40      60      80
      K
      2      3.3     4.5     5.0     5.6     5.6
     16      5.1     8.8    10.3    10.7    10.3
 

 CTBSV  with UPLO = 'U', TRANS = 'T'

         N    10      20      40      60      80
      K
      2      3.6     4.4     4.9     5.2     5.1
     16      5.2     8.5     9.6     9.8    10.0
 

 CTBSV  with UPLO = 'U', TRANS = 'C'

         N    10      20      40      60      80
      K
      2      3.3     4.4     5.1     5.2     5.4
     16      5.1     8.5     9.2     9.6     9.5
 

 CTBSV  with UPLO = 'L', TRANS = 'N'

         N    10      20      40      60      80
      K
      2      3.2     4.2     5.0     5.4     5.2
     16      5.2     9.0    10.7    10.6    10.8
 

 CTBSV  with UPLO = 'L', TRANS = 'T'

         N    10      20      40      60      80
      K
      2      3.2     4.5     5.0     5.4     5.7
     16      5.2     8.4     9.6     9.9     9.8
 

 CTBSV  with UPLO = 'L', TRANS = 'C'

         N    10      20      40      60      80
      K
      2      3.2     4.3     5.2     6.0     4.9
     16      5.0     8.3     9.4     9.6     9.3
 







 *** Speed of CTPSV  in megaflops ***
     with INCX =     1

 CTPSV  with UPLO = 'U', TRANS = 'N'

         N    10      20      40      60      80
       
             6.0     9.9    12.1    12.1    12.5
 

 CTPSV  with UPLO = 'U', TRANS = 'T'

         N    10      20      40      60      80
       
             6.5     9.5    11.1    11.4    11.7
 

 CTPSV  with UPLO = 'U', TRANS = 'C'

         N    10      20      40      60      80
       
             5.5     8.6    10.5    10.6    10.8
 

 CTPSV  with UPLO = 'L', TRANS = 'N'

         N    10      20      40      60      80
       
             5.7     9.7    12.0    12.2    12.7
 

 CTPSV  with UPLO = 'L', TRANS = 'T'

         N    10      20      40      60      80
       
             5.4     9.1    10.9    11.1    11.5
 

 CTPSV  with UPLO = 'L', TRANS = 'C'

         N    10      20      40      60      80
       
             5.3     8.6    10.5    10.5    10.8
 







 *** Speed of CGERU  in megaflops ***
     with LDA =    81 and INCX = INCY =     1

 CGERU 

         N    10      20      40      60      80
      M
     10     12.2    12.2    12.5    11.9    12.0
     20     13.2    13.5    13.4    12.9    12.9
     40     14.1    14.3    14.1    13.5    13.9
     60     14.4    14.4    14.1    14.1    16.6
     80     14.7    14.1    14.3    14.4    14.3
 







 *** Speed of CGERC  in megaflops ***
     with LDA =    81 and INCX =     1

 CGERC 

         N    10      20      40      60      80
      M
     10     11.3    11.7    11.9    12.0    11.8
     20     13.0    13.6    13.2    13.0    12.9
     40     13.9    14.4    14.0    13.7    13.9
     60     14.6    14.2    14.1    14.1    14.2
     80     14.9    14.2    14.3    14.3    14.4
 







 *** Speed of CHER   in megaflops ***
     with LDA =    81 and INCX =     1

 CHER   with UPLO = 'U'

         N    10      20      40      60      80
       
             8.7    13.2    13.9    14.1    14.4
 

 CHER   with UPLO = 'L'

         N    10      20      40      60      80
       
             8.8    12.2    13.8    14.0    14.1
 







 *** Speed of CHPR   in megaflops ***
     with INCX = INCY =     1

 CHPR   with UPLO = 'U'

         N    10      20      40      60      80
       
             9.8    12.9    14.1    14.2    14.2
 

 CHPR   with UPLO = 'L'

         N    10      20      40      60      80
       
             9.6    13.2    14.0    14.1    14.2
 







 *** Speed of CHER2  in megaflops ***
     with LDA =    81 and INCX = INCY =     1

 CHER2  with UPLO = 'U'

         N    10      20      40      60      80
       
             9.1    12.0    13.7    14.2    14.7
 

 CHER2  with UPLO = 'L'

         N    10      20      40      60      80
       
             9.1    12.1    14.0    14.3    14.1
 







 *** Speed of CHPR2  in megaflops ***
     with INCX =     1

 CHPR2  with UPLO = 'U'

         N    10      20      40      60      80
       
             8.9    11.8    13.7    14.3    14.7
 

 CHPR2  with UPLO = 'L'

         N    10      20      40      60      80
       
             9.3    12.4    14.1    14.5    14.9
 







 *** Speed of CSYMV  in megaflops ***
     with LDA =    81 and INCX =     1

 CSYMV  with UPLO = 'U'

         N    10      20      40      60      80
       
             8.1    11.8    13.5    13.6    14.0
 

 CSYMV  with UPLO = 'L'

         N    10      20      40      60      80
       
             7.6    11.2    13.3    13.4    13.5
 







 *** Speed of CSYR   in megaflops ***
     with LDA =    81 and INCX =     1

 CSYR   with UPLO = 'U'

         N    10      20      40      60      80
       
             8.8    12.3    13.5    13.9    14.0
 

 CSYR   with UPLO = 'L'

         N    10      20      40      60      80
       
             8.2    11.6    13.4    13.7    13.7
 







 *** Speed of CSPMV  in megaflops ***
     with INCX =     1

 CSPMV  with UPLO = 'U'

         N    10      20      40      60      80
       
             9.2    12.2    13.9    13.8    14.0
 

 CSPMV  with UPLO = 'L'

         N    10      20      40      60      80
       
             8.0    11.4    13.5    13.7    14.0
 







 *** Speed of CSPR   in megaflops ***
     with INCX =     1

 CSPR   with UPLO = 'U'

         N    10      20      40      60      80
       
             8.3    11.2    13.3    13.7    13.8
 

 CSPR   with UPLO = 'L'

         N    10      20      40      60      80
       
             7.5    11.0    13.4    13.5    13.8
 







 *** Speed of CGEMM  in megaflops ***
     with LDA =    81

 CGEMM  with TRANSA = 'N', TRANSB = 'N'

 K =    2

         N    10      20      40      60      80
      M
     10      9.8    10.2    10.8    11.0    11.1
     20     11.8    12.0    12.6    12.5    12.5
     40     13.3    13.5    13.7    13.6    13.9
     60     13.6    14.0    14.4    14.2    14.2
     80     13.5    14.2    14.3    14.2    14.3
 

 K =   16

         N    10      20      40      60      80
      M
     10     12.1    12.1    12.2    12.2    12.2
     20     13.4    13.4    13.4    13.3    13.5
     40     14.1    14.2    14.3    14.4    14.3
     60     14.2    14.4    14.4    14.4    14.4
     80     14.1    14.3    14.4    14.4    14.4
 

 CGEMM  with TRANSA = 'N', TRANSB = 'T'

 K =    2

         N    10      20      40      60      80
      M
     10      9.9    10.2    11.0    11.1    11.2
     20     11.7    12.3    12.5    12.5    12.6
     40     13.2    13.4    13.7    13.8    13.7
     60     13.7    14.1    14.1    14.2    14.3
     80     13.8    14.2    14.3    14.4    14.3
 

 K =   16

         N    10      20      40      60      80
      M
     10     12.1    12.2    12.1    12.2    12.2
     20     13.3    13.4    13.4    13.4    13.4
     40     14.1    14.0    13.9    14.1    14.1
     60     13.7    14.1    14.4    14.4    14.4
     80     14.1    14.2    14.3    14.4    14.3
 

 CGEMM  with TRANSA = 'N', TRANSB = 'C'

 K =    2

         N    10      20      40      60      80
      M
     10     10.0    10.4    11.2    11.3    11.2
     20     11.9    12.2    12.6    12.8    12.6
     40     13.3    13.6    13.8    13.9    13.8
     60     13.8    14.1    14.3    14.2    14.2
     80     13.7    14.1    14.4    14.4    14.4
 

 K =   16

         N    10      20      40      60      80
      M
     10     12.2    12.3    12.3    12.1    12.3
     20     13.4    13.5    13.5    13.5    13.5
     40     14.2    14.2    14.2    14.3    14.4
     60     14.2    14.1    14.3    14.4    14.4
     80     14.2    14.3    14.3    14.4    14.3
 

 CGEMM  with TRANSA = 'T', TRANSB = 'N'

 K =    2

         N    10      20      40      60      80
      M
     10      4.1     4.1     4.3     4.3     4.3
     20      4.2     4.3     4.3     4.4     4.4
     40      4.3     4.4     4.3     4.4     4.4
     60      4.3     4.3     4.4     4.4     4.3
     80      4.4     4.3     4.4     4.4     4.4
 

 K =   16

         N    10      20      40      60      80
      M
     10     10.5    10.6    10.6    10.8    10.7
     20     10.7    10.8    10.8    10.8    10.8
     40     10.7    10.8    10.8    10.8    10.8
     60     10.5    10.6    10.7    10.7    10.7
     80     10.5    10.6    10.6    10.6    10.6
 

 CGEMM  with TRANSA = 'T', TRANSB = 'T'

 K =    2

         N    10      20      40      60      80
      M
     10      4.0     4.1     4.3     4.2     4.1
     20      4.1     4.1     4.2     4.2     4.2
     40      4.1     4.3     4.3     4.3     4.2
     60      4.2     4.2     4.2     4.2     4.2
     80      4.2     4.3     4.4     4.3     4.2
 

 K =   16

         N    10      20      40      60      80
      M
     10      9.8    10.2    10.3    10.4    10.3
     20     10.7    10.8    10.6    10.5    10.5
     40     10.3    10.4    10.4    10.4    10.4
     60     10.4    10.6    10.5    10.2    10.3
     80     10.2    10.3    10.3    10.3    10.5
 

 CGEMM  with TRANSA = 'T', TRANSB = 'C'

 K =    2

         N    10      20      40      60      80
      M
     10      4.1     4.2     4.1     4.1     4.2
     20      4.0     4.1     4.2     4.3     4.3
     40      4.3     4.2     4.1     4.2     4.2
     60      4.1     4.2     4.2     4.3     4.3
     80      4.3     4.2     4.2     4.2     4.2
 

 K =   16

         N    10      20      40      60      80
      M
     10     10.1    10.2    10.1    10.5    10.6
     20     10.4    10.2    10.3    10.3    10.3
     40     10.2    10.2    10.3    10.6    10.6
     60     10.4    10.5    10.5    10.5    10.5
     80     10.3    10.4    10.4    10.4    10.4
 

 CGEMM  with TRANSA = 'C', TRANSB = 'N'

 K =    2

         N    10      20      40      60      80
      M
     10      4.1     4.1     4.2     4.3     4.3
     20      4.2     4.3     4.3     4.3     4.3
     40      4.2     4.3     4.3     4.3     4.3
     60      4.3     4.3     4.3     4.3     4.3
     80      4.3     4.3     4.3     4.3     4.3
 

 K =   16

         N    10      20      40      60      80
      M
     10     10.4    10.5    10.6    10.5    10.6
     20     10.6    10.6    10.7    10.6    10.4
     40     10.4    10.6    10.6    10.7    10.7
     60     10.5    10.5    10.6    10.6    10.6
     80     10.4    10.5    10.6    10.6    10.5
 

 CGEMM  with TRANSA = 'C', TRANSB = 'T'

 K =    2

         N    10      20      40      60      80
      M
     10      4.0     4.1     4.2     4.3     4.3
     20      4.2     4.2     4.3     4.3     4.3
     40      4.2     4.3     4.3     4.3     4.3
     60      4.2     4.3     4.3     4.3     4.3
     80      4.3     4.3     4.3     4.3     4.3
 

 K =   16

         N    10      20      40      60      80
      M
     10     10.3    10.4    10.4    10.5    10.6
     20     10.5    10.5    10.6    10.6    10.6
     40     10.5    10.6    10.6    10.6    10.7
     60     10.4    10.5    10.5    10.5    10.6
     80     10.4    10.5    10.5    10.5    10.5
 

 CGEMM  with TRANSA = 'C', TRANSB = 'C'

 K =    2

         N    10      20      40      60      80
      M
     10      4.1     4.1     4.2     4.3     4.2
     20      4.1     4.2     4.2     4.2     4.2
     40      4.2     4.2     4.2     4.3     4.2
     60      4.1     4.2     4.2     4.2     4.3
     80      4.2     4.2     4.2     4.3     4.3
 

 K =   16

         N    10      20      40      60      80
      M
     10      9.9     9.9    10.0    10.0    10.1
     20     10.1    10.1    10.0    10.1    10.1
     40     10.0    10.0    10.1    10.1    10.1
     60      9.9     9.9    10.0    10.0     9.9
     80      9.8    10.0     9.9     9.9    10.0
 







 *** Speed of CHEMM  in megaflops ***
     with LDA =    81

 CHEMM  with SIDE = 'L', UPLO = 'U'

         N    10      20      40      60      80
      M
     10      8.9     9.1     9.2     9.2     9.2
     20     11.4    11.4    11.5    11.5    11.5
     40     12.6    12.7    12.8    12.7    12.8
     60     12.9    12.9    13.0    13.0    13.1
     80     13.1    13.2    13.2    13.2    13.2
 

 CHEMM  with SIDE = 'L', UPLO = 'L'

         N    10      20      40      60      80
      M
     10      8.3     8.4     8.6     8.6     8.6
     20     11.1    11.1    11.1    11.1    11.1
     40     12.4    12.5    12.5    12.5    12.4
     60     12.5    12.5    12.6    12.7    12.8
     80     12.9    12.8    12.9    12.9    12.9
 

 CHEMM  with SIDE = 'R', UPLO = 'U'

         N    10      20      40      60      80
      M
     10     10.1    11.5    12.0    11.9    11.9
     20     10.9    12.2    12.8    12.6    12.4
     40     11.7    12.8    13.0    13.0    13.1
     60     12.0    12.9    13.0    13.2    13.3
     80     12.1    12.8    13.2    13.4    13.5
 

 CHEMM  with SIDE = 'R', UPLO = 'L'

         N    10      20      40      60      80
      M
     10     10.2    11.4    12.0    11.9    11.8
     20     11.0    12.3    12.8    12.5    12.4
     40     11.6    12.9    13.0    13.0    13.0
     60     12.0    12.9    13.1    13.2    13.2
     80     12.2    12.8    13.2    13.4    13.5
 







 *** Speed of CSYMM  in megaflops ***
     with LDA =    81

 CSYMM  with SIDE = 'L', UPLO = 'U'

         N    10      20      40      60      80
      M
     10      8.7     8.9     8.8     8.9     8.8
     20     11.3    11.4    11.4    11.4    11.3
     40     13.0    13.0    13.1    13.1    13.1
     60     13.4    13.6    13.7    13.6    13.6
     80     13.9    14.0    14.0    13.9    14.0
 

 CSYMM  with SIDE = 'L', UPLO = 'L'

         N    10      20      40      60      80
      M
     10      8.7     8.8     8.9     8.9     8.8
     20     11.4    11.4    11.4    11.4    11.4
     40     13.0    13.0    13.1    13.1    13.1
     60     13.6    13.6    13.6    13.6    13.7
     80     14.0    14.0    13.9    13.9    13.9
 

 CSYMM  with SIDE = 'R', UPLO = 'U'

         N    10      20      40      60      80
      M
     10     10.5    11.8    12.3    12.2    12.1
     20     11.4    12.6    13.1    12.8    12.6
     40     12.1    13.1    13.2    13.1    13.1
     60     12.6    13.1    13.2    13.4    13.5
     80     12.6    13.1    13.3    13.5    13.5
 

 CSYMM  with SIDE = 'R', UPLO = 'L'

         N    10      20      40      60      80
      M
     10     10.5    11.6    12.1    12.0    11.9
     20     11.4    12.5    13.0    12.7    12.5
     40     12.0    13.0    13.1    13.1    13.2
     60     12.4    13.1    13.1    13.3    13.4
     80     12.4    13.1    13.3    13.5    13.6
 







 *** Speed of CHERK  in megaflops ***
     with LDA =    81

 CHERK  with UPLO = 'U', TRANS = 'N'

         N    10      20      40      60      80
      K
      2      8.9    11.5    13.4    13.9    14.2
     16     10.9    12.9    14.1    14.4    14.5
 

 CHERK  with UPLO = 'U', TRANS = 'C'

         N    10      20      40      60      80
      K
      2      7.2     7.7     8.0     8.0     8.0
     16     11.6    12.0    12.2    12.2    12.2
 

 CHERK  with UPLO = 'L', TRANS = 'N'

         N    10      20      40      60      80
      K
      2      8.5    11.7    13.4    13.9    14.2
     16     11.0    13.0    14.1    14.3    14.3
 

 CHERK  with UPLO = 'L', TRANS = 'C'

         N    10      20      40      60      80
      K
      2      6.8     7.5     7.9     7.9     7.9
     16     11.6    12.0    12.2    12.2    12.1
 







 *** Speed of CHER2K in megaflops ***
     with LDA =    81

 CHER2K with UPLO = 'U', TRANS = 'N'

         N    10      20      40      60      80
      K
      2      7.9    10.7    12.7    13.4    13.5
     16      9.1    11.4    12.9    13.2    13.5
 

 CHER2K with UPLO = 'U', TRANS = 'C'

         N    10      20      40      60      80
      K
      2      5.0     5.5     5.8     5.9     5.9
     16      9.8    10.5    10.8    10.7    10.5
 

 CHER2K with UPLO = 'L', TRANS = 'N'

         N    10      20      40      60      80
      K
      2      7.9    10.7    12.6    12.9    13.1
     16      9.1    11.5    12.8    13.3    13.4
 

 CHER2K with UPLO = 'L', TRANS = 'C'

         N    10      20      40      60      80
      K
      2      4.7     5.2     5.5     5.5     5.6
     16      9.3    10.0    10.2    10.2    10.1
 







 *** Speed of CSYRK  in megaflops ***
     with LDA =    81

 CSYRK  with UPLO = 'U', TRANS = 'N'

         N    10      20      40      60      80
      K
      2      7.7    10.5    12.8    13.4    13.9
     16      9.9    12.1    13.6    14.1    14.2
 

 CSYRK  with UPLO = 'U', TRANS = 'T'

         N    10      20      40      60      80
      K
      2      4.0     4.2     4.4     4.4     4.4
     16     10.6    10.8    10.9    10.9    10.8
 

 CSYRK  with UPLO = 'L', TRANS = 'N'

         N    10      20      40      60      80
      K
      2      7.5    10.8    12.9    13.5    13.9
     16     10.0    12.1    13.6    14.1    14.3
 

 CSYRK  with UPLO = 'L', TRANS = 'T'

         N    10      20      40      60      80
      K
      2      3.8     4.3     4.3     4.4     4.3
     16     10.4    10.8    10.9    10.9    10.8
 







 *** Speed of CSYR2K in megaflops ***
     with LDA =    81

 CSYR2K with UPLO = 'U', TRANS = 'N'

         N    10      20      40      60      80
      K
      2      8.3    11.1    13.1    13.5    13.7
     16      9.5    11.7    13.0    13.4    13.5
 

 CSYR2K with UPLO = 'U', TRANS = 'T'

         N    10      20      40      60      80
      K
      2      4.6     5.1     5.3     5.4     5.4
     16      9.9    10.6    10.9    10.8    10.7
 

 CSYR2K with UPLO = 'L', TRANS = 'N'

         N    10      20      40      60      80
      K
      2      8.2    11.0    12.9    13.4    13.4
     16      9.6    11.8    13.0    13.4    13.5
 

 CSYR2K with UPLO = 'L', TRANS = 'T'

         N    10      20      40      60      80
      K
      2      4.3     4.7     4.9     4.9     4.9
     16      9.6    10.2    10.5    10.6    10.4
 







 *** Speed of CTRMM  in megaflops ***
     with LDA =    81

 CTRMM  with SIDE = 'L', UPLO = 'U', TRANS = 'N'

         N    10      20      40      60      80
      M
     10      8.6     8.8     9.0     8.9     8.9
     20     11.2    11.2    11.5    11.4    11.4
     40     12.5    12.7    12.7    12.7    12.7
     60     12.7    12.8    12.6    12.8    12.8
     80     13.0    13.0    13.0    13.0    13.0
 

 CTRMM  with SIDE = 'L', UPLO = 'U', TRANS = 'T'

         N    10      20      40      60      80
      M
     10      8.2     8.5     8.7     8.7     8.6
     20     10.4    10.5    10.5    10.6    10.6
     40     11.3    11.3    11.5    11.5    11.4
     60     11.4    11.5    11.5    11.6    11.5
     80     11.6    11.7    11.7    11.7    11.7
 

 CTRMM  with SIDE = 'L', UPLO = 'U', TRANS = 'C'

         N    10      20      40      60      80
      M
     10      8.1     8.3     8.6     8.6     8.5
     20     10.2    10.3    10.4    10.4    10.5
     40     10.9    11.1    11.1    11.2    11.2
     60     11.1    11.1    11.2    11.2    11.2
     80     11.2    11.3    11.3    11.1    11.3
 

 CTRMM  with SIDE = 'L', UPLO = 'L', TRANS = 'N'

         N    10      20      40      60      80
      M
     10      8.3     8.7     8.9     8.9     8.9
     20     11.2    11.4    11.5    11.4    11.5
     40     12.6    12.7    12.7    12.7    12.8
     60     12.6    12.7    12.7    12.8    12.7
     80     12.8    12.9    12.9    12.9    12.9
 

 CTRMM  with SIDE = 'L', UPLO = 'L', TRANS = 'T'

         N    10      20      40      60      80
      M
     10      8.1     8.3     8.7     8.6     8.6
     20     10.3    10.5    10.5    10.5    10.6
     40     11.3    11.4    11.4    11.4    11.4
     60     11.3    11.4    11.4    11.4    11.4
     80     11.5    11.4    11.5    11.5    11.5
 

 CTRMM  with SIDE = 'L', UPLO = 'L', TRANS = 'C'

         N    10      20      40      60      80
      M
     10      8.0     8.0     8.5     8.5     8.6
     20     10.1    10.3    10.4    10.3    10.4
     40     11.0    11.2    11.2    11.2    11.2
     60     11.1    11.1    11.1    11.1    11.1
     80     11.2    11.2    11.2    11.2    11.2
 

 CTRMM  with SIDE = 'R', UPLO = 'U', TRANS = 'N'

         N    10      20      40      60      80
      M
     10     10.2    11.0    11.0    10.8    10.6
     20     11.8    12.3    12.4    11.9    11.5
     40     12.9    13.1    12.3    11.9    11.6
     60     13.4    13.1    12.1    11.7    11.6
     80     13.6    13.1    12.0    11.7    11.7
 

 CTRMM  with SIDE = 'R', UPLO = 'U', TRANS = 'T'

         N    10      20      40      60      80
      M
     10      9.9    10.7    10.9    10.8    10.8
     20     11.5    12.2    11.9    12.2    12.0
     40     12.7    13.0    12.9    12.6    12.7
     60     13.2    13.3    13.0    12.9    12.9
     80     13.5    13.4    13.1    12.9    13.0
 

 CTRMM  with SIDE = 'R', UPLO = 'U', TRANS = 'C'

         N    10      20      40      60      80
      M
     10      9.9    10.8    11.0    10.8    10.8
     20     11.5    12.1    12.4    12.2    12.1
     40     12.7    13.0    12.9    12.8    12.7
     60     13.2    13.3    13.1    13.0    12.9
     80     13.5    13.3    13.0    13.0    13.0
 

 CTRMM  with SIDE = 'R', UPLO = 'L', TRANS = 'N'

         N    10      20      40      60      80
      M
     10     10.0    10.6    10.9    10.8    10.6
     20     11.7    12.1    12.3    11.9    11.5
     40     12.7    12.9    12.3    11.8     9.9
     60     13.2    13.3    11.9    11.7    11.6
     80     13.6    12.9    11.8    11.6    11.6
 

 CTRMM  with SIDE = 'R', UPLO = 'L', TRANS = 'T'

         N    10      20      40      60      80
      M
     10      9.7    10.6    11.0    10.8    10.8
     20     11.6    12.1    12.3    12.2    12.1
     40     12.7    13.1    12.9    12.8    12.6
     60     13.3    13.3    13.1    12.9    12.9
     80     13.6    13.5    13.1    13.0    13.0
 

 CTRMM  with SIDE = 'R', UPLO = 'L', TRANS = 'C'

         N    10      20      40      60      80
      M
     10      9.7    10.6    11.0    10.9    10.8
     20     11.5    12.2    12.3    12.2    12.1
     40     12.7    13.1    12.9    12.8    12.7
     60     13.4    13.3    13.0    12.9    13.0
     80     13.4    13.5    13.2    13.1    13.0
 







 *** Speed of CTRSM  in megaflops ***
     with LDA =    81

 CTRSM  with SIDE = 'L', UPLO = 'U', TRANS = 'N'

         N    10      20      40      60      80
      M
     10      7.7     8.0     8.1     8.0     8.0
     20      9.7     9.9    10.0    10.0    10.0
     40     10.9    11.0    11.0    11.0    11.0
     60     11.2    11.2    11.2    11.2    11.2
     80     11.3    11.3    11.4    11.4    11.3
 

 CTRSM  with SIDE = 'L', UPLO = 'U', TRANS = 'T'

         N    10      20      40      60      80
      M
     10      7.1     7.3     7.4     7.4     7.3
     20      9.2     9.3     9.4     9.5     9.4
     40     10.7    10.7    10.8    10.7    10.8
     60     11.1    11.1    11.0    11.1    11.1
     80     11.3    11.3    11.4    11.4    11.4
 

 CTRSM  with SIDE = 'L', UPLO = 'U', TRANS = 'C'

         N    10      20      40      60      80
      M
     10      7.0     7.2     7.4     7.3     7.3
     20      9.1     9.2     9.2     9.3     9.2
     40     10.2    10.3    10.3    10.4    10.2
     60     10.5    10.5    10.5    10.6    10.6
     80     10.7    10.6    10.7    10.8    10.7
 

 CTRSM  with SIDE = 'L', UPLO = 'L', TRANS = 'N'

         N    10      20      40      60      80
      M
     10      8.0     8.3     8.3     8.3     8.4
     20      9.9    10.0    10.1    10.1    10.2
     40     10.9    11.1    11.1    11.1    11.1
     60     11.1    11.3    11.3    11.3    11.3
     80     11.4    11.4    11.5    11.4    11.4
 

 CTRSM  with SIDE = 'L', UPLO = 'L', TRANS = 'T'

         N    10      20      40      60      80
      M
     10      7.1     7.3     7.5     7.4     7.4
     20      9.4     9.5     9.5     9.5     9.4
     40     10.6    10.7    10.7    10.7    10.7
     60     10.8    10.9    11.0    11.0    10.9
     80     11.1    11.1    11.1    11.1    11.1
 

 CTRSM  with SIDE = 'L', UPLO = 'L', TRANS = 'C'

         N    10      20      40      60      80
      M
     10      7.0     7.1     7.3     7.3     7.2
     20      9.1     9.2     9.2     9.2     9.1
     40     10.2    10.3    10.3    10.3    10.3
     60     10.5    10.5    10.5    10.5    10.5
     80     10.6    10.6    10.7    10.7    10.7
 

 CTRSM  with SIDE = 'R', UPLO = 'U', TRANS = 'N'

         N    10      20      40      60      80
      M
     10     10.5    11.5    11.7    11.6    11.3
     20     11.5    12.2    12.5    12.0    11.6
     40     12.5    12.6    12.1    11.6    11.3
     60     12.9    12.5    11.6    11.3    11.2
     80     13.0    12.4    11.4    11.2    11.1
 

 CTRSM  with SIDE = 'R', UPLO = 'U', TRANS = 'T'

         N    10      20      40      60      80
      M
     10     11.1    11.7    12.2    12.2    12.1
     20     12.2    12.8    13.0    13.0    12.9
     40     13.2    13.5    13.4    13.2    13.2
     60     13.6    13.3    13.5    13.2    13.3
     80     13.8    13.7    13.4    13.3    13.3
 

 CTRSM  with SIDE = 'R', UPLO = 'U', TRANS = 'C'

         N    10      20      40      60      80
      M
     10     10.9    12.0    12.1    12.2    12.1
     20     12.1    12.6    13.0    13.0    12.9
     40     13.1    13.5    13.4    13.3    13.2
     60     13.5    13.6    13.4    13.3    13.1
     80     13.6    13.7    13.3    13.3    13.3
 

 CTRSM  with SIDE = 'R', UPLO = 'L', TRANS = 'N'

         N    10      20      40      60      80
      M
     10      9.9    11.1    11.5    11.5    11.2
     20     11.2    11.9    12.3    11.9    11.6
     40     12.3    12.4    11.9    11.5    11.3
     60     12.7    12.6    11.6    11.3    11.1
     80     12.9    12.4    11.5    11.2    11.2
 

 CTRSM  with SIDE = 'R', UPLO = 'L', TRANS = 'T'

         N    10      20      40      60      80
      M
     10     10.8    11.8    12.1    12.2    12.1
     20     12.3    12.8    13.1    13.0    12.8
     40     13.2    13.4    13.4    13.2    13.1
     60     13.4    13.6    13.2    13.3    13.0
     80     13.6    13.5    13.3    13.3    13.2
 

 CTRSM  with SIDE = 'R', UPLO = 'L', TRANS = 'C'

         N    10      20      40      60      80
      M
     10     10.9    11.7    12.2    12.2    12.1
     20     12.2    12.7    13.1    13.0    12.9
     40     13.2    13.4    13.3    13.2    13.1
     60     13.6    13.5    13.3    13.2    13.2
     80     13.7    13.6    13.4    13.2    13.3
 






 End of tests
 Total time used =       150.29 seconds
