 LAPACK VERSION 2.0, released September 30, 1994 

 BLAS timing, DOUBLE PRECISION data, K small

 The following parameter values will be used:
    M:          10    20    40    60    80
    N:          10    20    40    60    80
    K:           2    16
    INCX:        1
    LDA:        81
 
 The minimum time a subroutine will be timed =  0.050 seconds
 

 ------------------------------
 >>>>>    Timing data     <<<<<
 ------------------------------

 *** Speed of DGEMV  in megaflops ***
     with LDA =    81 and INCX = INCY =     1

 DGEMV  with TRANS = 'N'

         N    10      20      40      60      80
      M
     10      4.6     6.3     6.8     6.5     6.4
     20      6.6     7.8     7.4     6.8     6.4
     40      8.2     8.2     6.9     6.7     6.6
     60      8.6     7.5     6.8     6.8     6.9
     80      9.2     7.3     6.9     6.9     6.9
 

 DGEMV  with TRANS = 'T'

         N    10      20      40      60      80
      M
     10      5.0     6.5     7.3     7.6     7.9
     20      7.0     8.6     8.6     8.9     9.0
     40      8.8     9.3     9.6     9.7     9.8
     60      9.9    10.0     9.9    10.3    10.3
     80     10.1     9.9    10.2    10.4    10.4
 







 *** Speed of DGBMV  in megaflops ***
     with LDA =    81 and INCX = INCY =     1

 DGBMV  with TRANS = 'N', M = N and KL = KU = K

         N    10      20      40      60      80
      K
      2      3.2     4.6     4.9     5.2     4.9
     16      5.1     7.4     7.2     6.7     6.4
 

 DGBMV  with TRANS = 'T', M = N and KL = KU = K

         N    10      20      40      60      80
      K
      2      3.1     4.3     5.0     5.9     5.7
     16      4.9     8.2     8.8     9.0     9.2
 







 *** Speed of DSYMV  in megaflops ***
     with LDA =    81 and INCX = INCY =     1

 DSYMV  with UPLO = 'U'

         N    10      20      40      60      80
       
             6.2    10.1    11.5    11.3    11.2
 

 DSYMV  with UPLO = 'L'

         N    10      20      40      60      80
       
             4.8     9.7    11.9    11.6    11.6
 







 *** Speed of DSBMV  in megaflops ***
     with LDA =    81 and INCX = INCY =     1

 DSBMV  with UPLO = 'U'

         N    10      20      40      60      80
      K
      2      2.9     4.6     5.7     5.8     5.9
     16      4.5     9.3    10.5    10.3    10.1
 

 DSBMV  with UPLO = 'L'

         N    10      20      40      60      80
      K
      2      2.9     4.4     5.3     5.7     5.7
     16      4.7     8.9    10.8    10.1    10.0
 







 *** Speed of DSPMV  in megaflops ***
     with INCX = INCY =     1

 DSPMV  with UPLO = 'U'

         N    10      20      40      60      80
       
             6.8    11.2    13.7    11.5    11.2
 

 DSPMV  with UPLO = 'L'

         N    10      20      40      60      80
       
             7.2    11.0    13.3    11.4    11.3
 







 *** Speed of DTRMV  in megaflops ***
     with LDA =    81 and INCX =     1

 DTRMV  with UPLO = 'U', TRANS = 'N'

         N    10      20      40      60      80
       
             3.3     6.1     6.8     6.6     6.5
 

 DTRMV  with UPLO = 'U', TRANS = 'T'

         N    10      20      40      60      80
       
             3.4     6.8     8.5     9.3     9.6
 

 DTRMV  with UPLO = 'L', TRANS = 'N'

         N    10      20      40      60      80
       
             3.2     5.6     6.5     6.4     6.2
 

 DTRMV  with UPLO = 'L', TRANS = 'T'

         N    10      20      40      60      80
       
             3.1     6.6     8.7     9.6     9.9
 







 *** Speed of DTBMV  in megaflops ***
     with LDA =    81 and INCX =     1

 DTBMV  with UPLO = 'U', TRANS = 'N'

         N    10      20      40      60      80
      K
      2      1.3     2.0     2.5     2.7     3.1
     16      2.3     5.0     6.0     6.0     5.9
 

 DTBMV  with UPLO = 'U', TRANS = 'T'

         N    10      20      40      60      80
      K
      2      1.3     2.2     3.3     3.5     2.1
     16      2.5     5.3     6.9     7.5     7.6
 

 DTBMV  with UPLO = 'L', TRANS = 'N'

         N    10      20      40      60      80
      K
      2      1.1     2.0     2.5     2.8     3.0
     16      2.2     4.7     6.1     5.6     5.7
 

 DTBMV  with UPLO = 'L', TRANS = 'T'

         N    10      20      40      60      80
      K
      2      1.3     2.1     2.9     3.8     3.8
     16      2.4     5.6     7.1     7.5     7.8
 







 *** Speed of DTPMV  in megaflops ***
     with INCX =     1

 DTPMV  with UPLO = 'U', TRANS = 'N'

         N    10      20      40      60      80
       
             2.8     5.6     7.6     6.6     6.6
 

 DTPMV  with UPLO = 'U', TRANS = 'T'

         N    10      20      40      60      80
       
             2.8     5.9     8.9     9.4     9.3
 

 DTPMV  with UPLO = 'L', TRANS = 'N'

         N    10      20      40      60      80
       
             2.8     5.1     7.0     6.1     6.2
 

 DTPMV  with UPLO = 'L', TRANS = 'T'

         N    10      20      40      60      80
       
             2.7     5.8     9.0     9.5     9.6
 







 *** Speed of DTRSV  in megaflops ***
     with LDA =    81 and INCX =     1

 DTRSV  with UPLO = 'U', TRANS = 'N'

         N    10      20      40      60      80
       
             2.8     5.1     6.1     6.1     6.0
 

 DTRSV  with UPLO = 'U', TRANS = 'T'

         N    10      20      40      60      80
       
             2.8     5.4     8.0     9.0     9.4
 

 DTRSV  with UPLO = 'L', TRANS = 'N'

         N    10      20      40      60      80
       
             2.5     4.9     6.5     6.2     6.2
 

 DTRSV  with UPLO = 'L', TRANS = 'T'

         N    10      20      40      60      80
       
             2.8     6.0     7.9     9.2     9.2
 







 *** Speed of DTBSV  in megaflops ***
     with LDA =    81 and INCX =     1

 DTBSV  with UPLO = 'U', TRANS = 'N'

         N    10      20      40      60      80
      K
      2      1.2     1.9     2.2     2.6     2.6
     16      2.5     4.7     5.5     5.5     5.6
 

 DTBSV  with UPLO = 'U', TRANS = 'T'

         N    10      20      40      60      80
      K
      2      1.4     2.1     2.6     3.3     3.1
     16      2.6     5.3     6.5     7.3     7.4
 

 DTBSV  with UPLO = 'L', TRANS = 'N'

         N    10      20      40      60      80
      K
      2      1.4     1.9     2.2     2.5     2.6
     16      2.7     4.8     6.1     5.8     5.4
 

 DTBSV  with UPLO = 'L', TRANS = 'T'

         N    10      20      40      60      80
      K
      2      1.4     2.1     2.7     3.1     3.1
     16      2.8     5.5     7.1     7.3     7.2
 







 *** Speed of DTPSV  in megaflops ***
     with INCX =     1

 DTPSV  with UPLO = 'U', TRANS = 'N'

         N    10      20      40      60      80
       
             2.4     4.8     6.6     6.1     6.1
 

 DTPSV  with UPLO = 'U', TRANS = 'T'

         N    10      20      40      60      80
       
             2.4     5.4     8.3     9.2     9.3
 

 DTPSV  with UPLO = 'L', TRANS = 'N'

         N    10      20      40      60      80
       
             2.2     4.7     6.9     6.2     6.4
 

 DTPSV  with UPLO = 'L', TRANS = 'T'

         N    10      20      40      60      80
       
             2.4     5.2     8.4     8.5     9.4
 







 *** Speed of DGER   in megaflops ***
     with LDA =    81 and INCX = INCY =     1

 DGER

         N    10      20      40      60      80
      M
     10      9.0    10.6     8.4     8.0     7.5
     20     10.1    10.9     9.9     8.1     7.3
     40     11.0    10.2     8.0     7.6     7.5
     60     12.3     8.8     7.3     7.6     7.3
     80     11.9     8.0     7.4     7.5     7.6
 







 *** Speed of DSYR   in megaflops ***
     with LDA =    81 and INCX =     1

 DSYR   with UPLO = 'U'

         N    10      20      40      60      80
       
             5.7     8.0     8.6     7.6     7.5
 

 DSYR   with UPLO = 'L'

         N    10      20      40      60      80
       
             4.6     7.5     8.3     7.5     7.7
 







 *** Speed of DSPR   in megaflops ***
     with INCX =     1

 DSPR   with UPLO = 'U'

         N    10      20      40      60      80
       
             5.2     7.8     9.9     7.7     7.5
 

 DSPR   with UPLO = 'L'

         N    10      20      40      60      80
       
             4.6     7.2     8.6     7.5     7.5
 







 *** Speed of DSYR2  in megaflops ***
     with LDA =    81 and INCX = INCY =     1

 DSYR2  with UPLO = 'U'

         N    10      20      40      60      80
       
             8.2    11.5    12.3    13.4    13.3
 

 DSYR2  with UPLO = 'L'

         N    10      20      40      60      80
       
             7.2    11.2    13.9    13.5    13.7
 







 *** Speed of DSPR2  in megaflops ***
     with INCX = INCY =     1

 DSPR2  with UPLO = 'U'

         N    10      20      40      60      80
       
             6.2    10.4    13.9    13.3    13.0
 

 DSPR2  with UPLO = 'L'

         N    10      20      40      60      80
       
             6.3    11.1    12.4    12.9    13.1
 







 *** Speed of DGEMM  in megaflops ***
     with LDA =    81

 DGEMM  with TRANSA = 'N', TRANSB = 'N'

 K =    2

         N    10      20      40      60      80
      M
     10      7.7     6.7     7.6     7.4     7.2
     20      7.3     7.7     8.5     8.1     7.5
     40      8.6     9.0     8.8     8.7     8.6
     60      8.8     8.6     8.4     8.5     8.2
     80      8.3     8.5     8.5     8.5     8.4
 

 K =   16

         N    10      20      40      60      80
      M
     10      9.3     9.6     9.4     9.3     9.3
     20     10.3    10.3    10.1    10.1    10.2
     40      9.8    10.0    10.1    10.1    10.2
     60      8.8     9.2     9.2     9.4     9.3
     80      8.4     8.6     8.6     8.6     8.6
 

 DGEMM  with TRANSA = 'N', TRANSB = 'T'

 K =    2

         N    10      20      40      60      80
      M
     10      5.6     6.3     7.3     7.3     7.5
     20      7.0     7.8     8.7     8.3     8.1
     40      9.0     8.9     8.8     8.4     8.5
     60      8.7     8.6     8.4     8.2     8.5
     80      8.7     8.4     8.5     8.5     8.6
 

 K =   16

         N    10      20      40      60      80
      M
     10      9.5     9.1     9.0     9.1     9.1
     20     10.0    10.1     9.6     9.8    10.0
     40      9.6     9.9     9.8     9.9     9.9
     60      8.6     9.1     9.2     9.2     9.2
     80      8.3     8.4     8.5     8.5     8.5
 

 DGEMM  with TRANSA = 'T', TRANSB = 'N'

 K =    2

         N    10      20      40      60      80
      M
     10      3.3     3.7     3.7     3.9     4.0
     20      3.7     3.9     4.1     4.1     4.1
     40      3.8     4.0     4.1     4.1     4.1
     60      4.0     4.0     4.1     4.1     4.2
     80      3.9     4.0     4.1     4.1     4.1
 

 K =   16

         N    10      20      40      60      80
      M
     10      9.0     9.4     9.6     9.7     9.7
     20      9.5     9.7     9.8     9.8     9.9
     40      9.4     9.6     9.8     9.8     9.8
     60      9.0     9.2     9.3     9.3     9.1
     80      8.9     9.0     9.1     9.1     9.1
 

 DGEMM  with TRANSA = 'T', TRANSB = 'T'

 K =    2

         N    10      20      40      60      80
      M
     10      3.2     3.5     3.8     3.8     3.8
     20      3.4     3.8     4.0     4.0     4.0
     40      3.7     3.9     4.0     4.0     4.0
     60      3.9     3.9     3.9     4.0     3.9
     80      3.8     3.9     4.0     4.0     4.0
 

 K =   16

         N    10      20      40      60      80
      M
     10      8.8     9.0     9.2     9.2     9.3
     20      9.3     9.4     9.4     9.4     9.6
     40      9.0     9.3     9.4     9.5     9.5
     60      8.7     9.0     9.0     9.0     9.0
     80      8.6     8.7     8.8     8.8     8.8
 







 *** Speed of DSYMM  in megaflops ***
     with LDA =    81

 DSYMM  with SIDE = 'L', UPLO = 'U'

         N    10      20      40      60      80
      M
     10      9.1     9.4     9.3     9.4     9.3
     20     12.3    12.5    12.1    12.3    12.2
     40     12.6    12.9    13.0    13.1    13.0
     60     11.6    11.6    11.6    11.7    11.7
     80     11.2    11.3    11.3    11.3    11.3
 

 DSYMM  with SIDE = 'L', UPLO = 'L'

         N    10      20      40      60      80
      M
     10      8.7     8.8     9.0     9.0     9.1
     20     12.2    12.2    12.1    12.3    12.4
     40     13.1    13.1    13.2    13.2    13.3
     60     11.9    12.1    12.0    12.1    12.1
     80     11.6    11.7    11.7    11.7    11.7
 

 DSYMM  with SIDE = 'R', UPLO = 'U'

         N    10      20      40      60      80
      M
     10      8.8    10.2     9.6     8.2     7.6
     20      8.8    10.0     9.8     7.9     6.9
     40      9.2     9.2     7.6     6.9     6.9
     60      9.3     8.3     6.9     7.0     7.0
     80      9.2     7.5     7.0     7.0     6.9
 

 DSYMM  with SIDE = 'R', UPLO = 'L'

         N    10      20      40      60      80
      M
     10      8.7    10.0     9.6     8.2     7.5
     20      9.1    10.3     9.8     7.8     7.0
     40      9.2     9.2     7.5     7.0     6.9
     60      9.3     8.3     7.0     7.0     7.0
     80      9.2     7.6     7.0     7.0     7.0
 







 *** Speed of DSYRK  in megaflops ***
     with LDA =    81

 DSYRK  with UPLO = 'U', TRANS = 'N'

         N    10      20      40      60      80
      K
      2      4.7     6.6     8.6     8.7     8.6
     16      7.2     9.2    10.1    10.0     9.5
 

 DSYRK  with UPLO = 'U', TRANS = 'T'

         N    10      20      40      60      80
      K
      2      3.1     3.8     4.0     4.1     4.1
     16      8.8     9.7     9.5     9.7     9.5
 

 DSYRK  with UPLO = 'L', TRANS = 'N'

         N    10      20      40      60      80
      K
      2      4.2     6.9     8.4     8.7     8.9
     16      7.1     9.3    10.2    10.1     9.6
 

 DSYRK  with UPLO = 'L', TRANS = 'T'

         N    10      20      40      60      80
      K
      2      2.4     3.3     3.8     3.9     3.9
     16      8.3     9.4     9.7     9.6     9.4
 







 *** Speed of DSYR2K in megaflops ***
     with LDA =    81

 DSYR2K with UPLO = 'U', TRANS = 'N'

         N    10      20      40      60      80
      K
      2      5.1     9.1    11.1    10.9    10.6
     16      9.0    11.9    10.8     9.8     9.2
 

 DSYR2K with UPLO = 'U', TRANS = 'T'

         N    10      20      40      60      80
      K
      2      4.0     5.1     5.7     5.8     5.8
     16     11.1    12.4    12.2    11.0    10.2
 

 DSYR2K with UPLO = 'L', TRANS = 'N'

         N    10      20      40      60      80
      K
      2      5.3    10.0    10.2    10.7    10.7
     16      9.0    11.7    10.5     9.7     9.2
 

 DSYR2K with UPLO = 'L', TRANS = 'T'

         N    10      20      40      60      80
      K
      2      3.6     4.9     5.5     5.6     5.7
     16     10.4    12.1    12.2    11.0    10.1
 







 *** Speed of DTRMM  in megaflops ***
     with LDA =    81

 DTRMM  with SIDE = 'L', UPLO = 'U', TRANS = 'N'

         N    10      20      40      60      80
      M
     10      5.9     6.3     6.1     6.5     6.5
     20      8.4     8.7     8.9     8.8     8.9
     40      8.2     8.4     8.4     8.5     8.5
     60      7.1     7.1     7.1     7.1     7.1
     80      6.6     6.7     6.7     6.7     6.7
 

 DTRMM  with SIDE = 'L', UPLO = 'U', TRANS = 'T'

         N    10      20      40      60      80
      M
     10      7.2     7.8     8.1     8.0     8.2
     20      9.4     9.8    10.0    10.0    10.1
     40     10.1    10.2    10.3    10.3    10.4
     60     10.0    10.1    10.1    10.1    10.2
     80     10.2    10.2    10.3    10.2    10.3
 

 DTRMM  with SIDE = 'L', UPLO = 'L', TRANS = 'N'

         N    10      20      40      60      80
      M
     10      5.2     5.6     5.9     6.0     6.0
     20      7.8     8.1     8.4     8.4     8.4
     40      8.2     8.3     8.3     8.4     8.4
     60      6.8     6.8     6.9     6.9     6.9
     80      6.4     6.4     6.4     6.4     6.4
 

 DTRMM  with SIDE = 'L', UPLO = 'L', TRANS = 'T'

         N    10      20      40      60      80
      M
     10      6.9     7.4     7.9     7.9     7.8
     20      9.3     9.6     9.7     9.7     9.8
     40     10.2    10.2    10.3    10.3    10.3
     60     10.0    10.1    10.1    10.2    10.2
     80     10.1    10.2    10.3    10.2    10.2
 

 DTRMM  with SIDE = 'R', UPLO = 'U', TRANS = 'N'

         N    10      20      40      60      80
      M
     10      6.5     7.8     8.0     7.4     7.0
     20      7.6     8.5     8.7     7.9     7.0
     40      8.6     8.8     7.5     6.5     6.2
     60      8.9     8.4     6.6     6.0     5.9
     80      9.2     8.0     6.2     6.0     5.9
 

 DTRMM  with SIDE = 'R', UPLO = 'U', TRANS = 'T'

         N    10      20      40      60      80
      M
     10      6.7     7.7     7.9     7.6     7.4
     20      7.6     8.5     8.7     8.3     7.8
     40      8.5     8.9     8.2     7.6     7.4
     60      8.9     8.6     7.6     7.4     7.3
     80      9.1     8.4     7.4     7.2     7.2
 

 DTRMM  with SIDE = 'R', UPLO = 'L', TRANS = 'N'

         N    10      20      40      60      80
      M
     10      6.4     7.5     7.8     7.4     6.9
     20      7.6     8.6     8.7     7.8     7.0
     40      8.5     8.6     7.2     6.4     6.0
     60      8.6     8.3     6.5     6.0     5.9
     80      9.2     7.9     6.2     5.9     5.8
 

 DTRMM  with SIDE = 'R', UPLO = 'L', TRANS = 'T'

         N    10      20      40      60      80
      M
     10      6.3     7.5     7.8     7.5     7.4
     20      7.5     8.6     8.7     8.2     7.8
     40      8.2     8.8     8.3     7.7     7.5
     60      8.9     8.8     7.8     7.4     7.3
     80      9.1     8.5     7.4     7.2     7.2
 







 *** Speed of DTRSM  in megaflops ***
     with LDA =    81

 DTRSM  with SIDE = 'L', UPLO = 'U', TRANS = 'N'

         N    10      20      40      60      80
      M
     10      4.6     4.9     4.9     4.9     4.9
     20      6.3     6.5     6.6     6.6     6.5
     40      6.6     6.6     6.7     6.7     6.7
     60      5.8     5.8     5.9     5.8     5.9
     80      5.6     5.6     5.6     5.6     5.6
 

 DTRSM  with SIDE = 'L', UPLO = 'U', TRANS = 'T'

         N    10      20      40      60      80
      M
     10      6.0     6.3     6.2     6.3     6.3
     20      8.1     8.4     8.5     8.5     8.4
     40      9.4     9.6     9.6     9.6     9.6
     60      9.6     9.6     9.8     9.8     9.8
     80      9.9    10.0    10.1    10.0    10.0
 

 DTRSM  with SIDE = 'L', UPLO = 'L', TRANS = 'N'

         N    10      20      40      60      80
      M
     10      4.7     4.9     5.0     5.1     5.1
     20      6.6     6.6     6.7     6.6     6.7
     40      6.8     6.8     6.9     6.9     6.9
     60      6.0     6.0     6.1     6.1     6.1
     80      5.8     5.8     5.8     5.8     5.7
 

 DTRSM  with SIDE = 'L', UPLO = 'L', TRANS = 'T'

         N    10      20      40      60      80
      M
     10      5.4     5.7     5.9     5.8     5.9
     20      7.9     8.1     8.3     8.1     8.2
     40      9.3     9.4     9.4     9.4     9.4
     60      9.5     9.6     9.7     9.7     9.6
     80      9.7     9.8     9.9     9.9     9.9
 

 DTRSM  with SIDE = 'R', UPLO = 'U', TRANS = 'N'

         N    10      20      40      60      80
      M
     10      6.5     7.5     7.7     7.2     6.8
     20      7.5     8.5     8.6     7.8     6.9
     40      8.5     8.7     7.4     6.5     6.1
     60      8.9     8.4     6.5     6.0     5.9
     80      9.4     8.0     6.2     5.9     5.8
 

 DTRSM  with SIDE = 'R', UPLO = 'U', TRANS = 'T'

         N    10      20      40      60      80
      M
     10      6.4     7.6     7.9     7.6     7.5
     20      7.5     8.5     8.7     7.7     7.8
     40      7.9     8.8     8.4     7.8     7.5
     60      9.0     8.9     7.8     7.5     7.4
     80      9.2     8.6     7.5     7.3     7.3
 

 DTRSM  with SIDE = 'R', UPLO = 'L', TRANS = 'N'

         N    10      20      40      60      80
      M
     10      5.6     6.9     7.3     7.1     6.7
     20      7.1     8.2     8.3     7.5     6.8
     40      8.1     8.5     7.4     6.5     6.1
     60      8.5     8.3     6.6     6.1     5.9
     80      8.8     8.0     6.2     5.9     5.8
 

 DTRSM  with SIDE = 'R', UPLO = 'L', TRANS = 'T'

         N    10      20      40      60      80
      M
     10      6.2     7.3     7.8     7.6     7.2
     20      7.5     8.5     8.6     8.3     7.8
     40      8.5     8.8     8.2     7.7     7.5
     60      9.0     8.7     7.7     7.4     7.3
     80      9.0     8.5     7.4     7.3     7.3
 






 End of tests
 Total time used =        82.90 seconds
