 Timing the Singular Value Decomposition routines
    DGEBRD, DBDSQR, and DORGBR 

 LAPACK VERSION 2.0, released September 30, 1994 

 The following parameter values will be used:
    Values of  M   :      10    10    20    20    20    40    40
    Values of  N   :      10    20    10    20    40    20    40
    Values of  NB  :       1
    Values of  LDA :      81

 Minimum time a subroutine will be timed =     0.05 seconds




 ****** Results for DGEBRD    ******
     with LDA =   81, NB  =    1

 *** Time in seconds ***
       M,N (  10,  10)(  10,  20)(  20,  10)(  20,  20)(  20,  40)(  40,  20)(  40,  40)
   Type
      1       9.99E-04   1.70E-03   1.39E-03   3.69E-03   7.77E-03   6.79E-03   2.15E-02
      2       9.99E-04   1.72E-03   1.42E-03   3.68E-03   7.76E-03   6.82E-03   2.16E-02
      3       1.11E-03   1.71E-03   1.41E-03   3.67E-03   7.75E-03   6.84E-03   2.16E-02
      4       9.89E-04   1.70E-03   1.54E-03   3.68E-03   7.74E-03   6.80E-03   2.15E-02

 *** Number of floating-point operations ***
       M,N (  10,  10)(  10,  20)(  20,  10)(  20,  20)(  20,  40)(  40,  20)(  40,  40)
   Type
      1       2.95E+03   6.85E+03   6.85E+03   2.23E+04   5.39E+04   5.39E+04   1.74E+05
      2       2.95E+03   6.85E+03   6.85E+03   2.23E+04   5.39E+04   5.39E+04   1.74E+05
      3       2.95E+03   6.85E+03   6.85E+03   2.23E+04   5.39E+04   5.39E+04   1.74E+05
      4       2.95E+03   6.85E+03   6.85E+03   2.23E+04   5.39E+04   5.39E+04   1.74E+05

 *** Speed in megaflops ***
       M,N (  10,  10)(  10,  20)(  20,  10)(  20,  20)(  20,  40)(  40,  20)(  40,  40)
   Type
      1        3.0        4.0        4.9        6.0        6.9        7.9        8.1    
      2        3.0        4.0        4.8        6.1        6.9        7.9        8.1    
      3        2.7        4.0        4.9        6.1        7.0        7.9        8.1    
      4        3.0        4.0        4.4        6.1        7.0        7.9        8.1    



 ****** Results for DBDSQR    ******
     with LDA =   81

 *** Time in seconds ***
       M,N (  10,  10)(  10,  20)(  20,  10)(  20,  20)(  20,  40)(  40,  20)(  40,  40)
   Type
      1       1.05E-03   1.21E-03   1.15E-03   2.76E-03   2.86E-03   2.70E-03   7.61E-03
      2       6.48E-04   6.56E-04   6.85E-04   1.46E-03   1.45E-03   1.48E-03   3.91E-03
      3       1.60E-03   1.45E-03   1.54E-03   5.22E-03   4.13E-03   4.43E-03   1.50E-02
      4       1.15E-03   1.20E-03   1.43E-03   3.16E-03   3.32E-03   3.50E-03   8.85E-03

 *** Number of floating-point operations ***
       M,N (  10,  10)(  10,  20)(  20,  10)(  20,  20)(  20,  40)(  40,  20)(  40,  40)
   Type
      1       2.50E+03   3.08E+03   2.83E+03   8.55E+03   8.91E+03   8.48E+03   2.73E+04
      2       1.30E+03   1.31E+03   1.37E+03   4.18E+03   4.19E+03   4.28E+03   1.34E+04
      3       4.26E+03   3.77E+03   4.09E+03   1.75E+04   1.34E+04   1.47E+04   5.62E+04
      4       2.88E+03   3.03E+03   3.78E+03   1.00E+04   1.07E+04   1.13E+04   3.20E+04

 *** Speed in megaflops ***
       M,N (  10,  10)(  10,  20)(  20,  10)(  20,  20)(  20,  40)(  40,  20)(  40,  40)
   Type
      1        2.4        2.5        2.5        3.1        3.1        3.1        3.6    
      2        2.0        2.0        2.0        2.9        2.9        2.9        3.4    
      3        2.7        2.6        2.7        3.4        3.3        3.3        3.7    
      4        2.5        2.5        2.6        3.2        3.2        3.2        3.6    



 ****** Results for DBDSQR(L) ******
     with LDA =   81

 *** Time in seconds ***
       M,N (  10,  10)(  10,  20)(  20,  10)(  20,  20)(  20,  40)(  40,  20)(  40,  40)
   Type
      1       2.65E-03   2.64E-03   3.35E-03   1.09E-02   1.11E-02   1.40E-02   5.32E-02
      2       1.09E-03   1.05E-03   1.32E-03   4.26E-03   4.49E-03   5.94E-03   2.38E-02
      3       2.83E-03   2.84E-03   3.39E-03   1.19E-02   1.35E-02   1.47E-02   5.95E-02
      4       2.69E-03   2.84E-03   4.13E-03   1.04E-02   1.31E-02   1.75E-02   5.64E-02

 *** Number of floating-point operations ***
       M,N (  10,  10)(  10,  20)(  20,  10)(  20,  20)(  20,  40)(  40,  20)(  40,  40)
   Type
      1       9.59E+03   9.66E+03   1.71E+04   6.15E+04   6.63E+04   1.08E+05   4.32E+05
      2       3.67E+03   3.80E+03   6.33E+03   2.52E+04   2.63E+04   4.54E+04   1.86E+05
      3       1.04E+04   1.04E+04   1.71E+04   7.10E+04   8.13E+04   1.16E+05   4.83E+05
      4       1.03E+04   1.09E+04   2.23E+04   6.24E+04   8.14E+04   1.39E+05   4.65E+05

 *** Speed in megaflops ***
       M,N (  10,  10)(  10,  20)(  20,  10)(  20,  20)(  20,  40)(  40,  20)(  40,  40)
   Type
      1        3.6        3.7        5.1        5.6        6.0        7.7        8.1    
      2        3.4        3.6        4.8        5.9        5.8        7.7        7.8    
      3        3.7        3.7        5.1        6.0        6.0        7.9        8.1    
      4        3.8        3.8        5.4        6.0        6.2        8.0        8.2    



 ****** Results for DBDSQR(R) ******
     with LDA =   81

 *** Time in seconds ***
       M,N (  10,  10)(  10,  20)(  20,  10)(  20,  20)(  20,  40)(  40,  20)(  40,  40)
   Type
      1       2.55E-03   2.87E-03   2.76E-03   9.89E-03   1.35E-02   1.01E-02   5.03E-02
      2       1.06E-03   1.13E-03   1.08E-03   4.01E-03   5.51E-03   4.07E-03   2.28E-02
      3       2.73E-03   3.14E-03   2.80E-03   1.12E-02   1.68E-02   1.04E-02   5.64E-02
      4       2.60E-03   3.11E-03   3.52E-03   9.76E-03   1.63E-02   1.22E-02   5.33E-02

 *** Number of floating-point operations ***
       M,N (  10,  10)(  10,  20)(  20,  10)(  20,  20)(  20,  40)(  40,  20)(  40,  40)
   Type
      1       9.60E+03   1.46E+04   1.07E+04   6.16E+04   1.12E+05   6.17E+04   4.32E+05
      2       3.70E+03   5.50E+03   3.76E+03   2.52E+04   4.35E+04   2.50E+04   1.86E+05
      3       1.04E+04   1.56E+04   1.07E+04   7.11E+04   1.39E+05   6.59E+04   4.83E+05
      4       1.03E+04   1.65E+04   1.40E+04   6.25E+04   1.39E+05   7.93E+04   4.66E+05

 *** Speed in megaflops ***
       M,N (  10,  10)(  10,  20)(  20,  10)(  20,  20)(  20,  40)(  40,  20)(  40,  40)
   Type
      1        3.8        5.1        3.9        6.2        8.3        6.1        8.6    
      2        3.5        4.9        3.5        6.3        7.9        6.1        8.1    
      3        3.8        5.0        3.8        6.3        8.2        6.3        8.6    
      4        4.0        5.3        4.0        6.4        8.5        6.5        8.7    



 ****** Results for DBDSQR(B) ******
     with LDA =   81

 *** Time in seconds ***
       M,N (  10,  10)(  10,  20)(  20,  10)(  20,  20)(  20,  40)(  40,  20)(  40,  40)
   Type
      1       3.22E-03   3.58E-03   4.01E-03   1.46E-02   1.87E-02   1.86E-02   8.74E-02
      2       1.33E-03   1.42E-03   1.57E-03   6.07E-03   7.86E-03   7.88E-03   3.92E-02
      3       3.48E-03   3.87E-03   4.06E-03   1.65E-02   2.32E-02   1.94E-02   9.81E-02
      4       3.29E-03   3.91E-03   5.11E-03   1.44E-02   2.28E-02   2.30E-02   9.28E-02

 *** Number of floating-point operations ***
       M,N (  10,  10)(  10,  20)(  20,  10)(  20,  20)(  20,  40)(  40,  20)(  40,  40)
   Type
      1       1.54E+04   2.05E+04   2.36E+04   1.08E+05   1.63E+05   1.55E+05   8.06E+05
      2       6.22E+03   8.26E+03   8.92E+03   4.59E+04   6.52E+04   6.60E+04   3.53E+05
      3       1.66E+04   2.19E+04   2.36E+04   1.25E+05   2.01E+05   1.66E+05   9.01E+05
      4       1.64E+04   2.32E+04   3.07E+04   1.10E+05   2.01E+05   1.99E+05   8.68E+05

 *** Speed in megaflops ***
       M,N (  10,  10)(  10,  20)(  20,  10)(  20,  20)(  20,  40)(  40,  20)(  40,  40)
   Type
      1        4.8        5.7        5.9        7.4        8.7        8.3        9.2    
      2        4.7        5.8        5.7        7.6        8.3        8.4        9.0    
      3        4.8        5.7        5.8        7.6        8.6        8.6        9.2    
      4        5.0        5.9        6.0        7.6        8.8        8.7        9.4    



 ****** Results for DBDSQR(V) ******
     with LDA =   81

 *** Time in seconds ***
       M,N (  10,  10)(  10,  20)(  20,  10)(  20,  20)(  20,  40)(  40,  20)(  40,  40)
   Type
      1       2.56E-03   2.58E-03   2.79E-03   9.97E-03   1.05E-02   1.02E-02   5.00E-02
      2       1.07E-03   1.01E-03   1.11E-03   4.07E-03   4.49E-03   4.10E-03   2.28E-02
      3       2.75E-03   2.77E-03   2.82E-03   1.13E-02   1.29E-02   1.04E-02   5.62E-02
      4       2.61E-03   2.74E-03   3.57E-03   9.80E-03   1.24E-02   1.23E-02   5.33E-02

 *** Number of floating-point operations ***
       M,N (  10,  10)(  10,  20)(  20,  10)(  20,  20)(  20,  40)(  40,  20)(  40,  40)
   Type
      1       9.59E+03   9.66E+03   1.07E+04   6.15E+04   6.63E+04   6.16E+04   4.32E+05
      2       3.67E+03   3.80E+03   3.75E+03   2.52E+04   2.63E+04   2.49E+04   1.86E+05
      3       1.04E+04   1.04E+04   1.07E+04   7.10E+04   8.13E+04   6.58E+04   4.83E+05
      4       1.03E+04   1.09E+04   1.40E+04   6.24E+04   8.14E+04   7.92E+04   4.65E+05

 *** Speed in megaflops ***
       M,N (  10,  10)(  10,  20)(  20,  10)(  20,  20)(  20,  40)(  40,  20)(  40,  40)
   Type
      1        3.7        3.7        3.8        6.2        6.3        6.1        8.6    
      2        3.4        3.8        3.4        6.2        5.8        6.1        8.1    
      3        3.8        3.7        3.8        6.3        6.3        6.3        8.6    
      4        3.9        4.0        3.9        6.4        6.5        6.4        8.7    



 ****** Results for LAPSVD    ******
     with LDA =   81, NB  =    1

 *** Time in seconds ***
       M,N (  10,  10)(  10,  20)(  20,  10)(  20,  20)(  20,  40)(  40,  20)(  40,  40)
   Type
      1       2.05E-03   2.91E-03   2.54E-03   6.45E-03   1.06E-02   9.49E-03   2.91E-02
      2       1.65E-03   2.37E-03   2.10E-03   5.14E-03   9.21E-03   8.30E-03   2.55E-02
      3       2.71E-03   3.16E-03   2.94E-03   8.89E-03   1.19E-02   1.13E-02   3.66E-02
      4       2.14E-03   2.91E-03   2.97E-03   6.84E-03   1.11E-02   1.03E-02   3.03E-02

 *** Number of floating-point operations ***
       M,N (  10,  10)(  10,  20)(  20,  10)(  20,  20)(  20,  40)(  40,  20)(  40,  40)
   Type
      1       5.45E+03   9.93E+03   9.68E+03   3.08E+04   6.28E+04   6.24E+04   2.01E+05
      2       4.25E+03   8.16E+03   8.22E+03   2.65E+04   5.81E+04   5.82E+04   1.88E+05
      3       7.21E+03   1.06E+04   1.09E+04   3.98E+04   6.73E+04   6.86E+04   2.30E+05
      4       5.83E+03   9.88E+03   1.06E+04   3.23E+04   6.46E+04   6.52E+04   2.06E+05

 *** Speed in megaflops ***
       M,N (  10,  10)(  10,  20)(  20,  10)(  20,  20)(  20,  40)(  40,  20)(  40,  40)
   Type
      1        2.7        3.4        3.8        4.8        5.9        6.6        6.9    
      2        2.6        3.4        3.9        5.2        6.3        7.0        7.4    
      3        2.7        3.4        3.7        4.5        5.7        6.1        6.3    
      4        2.7        3.4        3.6        4.7        5.8        6.3        6.8    



 ****** Results for LAPSVD(l) ******
     with LDA =   81, NB  =    1

 *** Time in seconds ***
       M,N (  10,  10)(  10,  20)(  20,  10)(  20,  20)(  20,  40)(  40,  20)(  40,  40)
   Type
      1       4.08E-03   4.75E-03   5.33E-03   1.62E-02   2.04E-02   2.38E-02   8.44E-02
      2       2.52E-03   3.18E-03   3.33E-03   9.51E-03   1.38E-02   1.57E-02   5.51E-02
      3       4.36E-03   4.96E-03   5.39E-03   1.71E-02   2.28E-02   2.45E-02   9.08E-02
      4       4.10E-03   4.95E-03   6.25E-03   1.56E-02   2.24E-02   2.72E-02   8.76E-02

 *** Number of floating-point operations ***
       M,N (  10,  10)(  10,  20)(  20,  10)(  20,  20)(  20,  40)(  40,  20)(  40,  40)
   Type
      1       1.40E+04   1.79E+04   2.73E+04   9.49E+04   1.31E+05   1.89E+05   6.93E+05
      2       8.04E+03   1.21E+04   1.65E+04   5.85E+04   9.12E+04   1.26E+05   4.47E+05
      3       1.47E+04   1.86E+04   2.73E+04   1.04E+05   1.46E+05   1.96E+05   7.44E+05
      4       1.46E+04   1.92E+04   3.25E+04   9.58E+04   1.46E+05   2.20E+05   7.26E+05

 *** Speed in megaflops ***
       M,N (  10,  10)(  10,  20)(  20,  10)(  20,  20)(  20,  40)(  40,  20)(  40,  40)
   Type
      1        3.4        3.8        5.1        5.9        6.4        7.9        8.2    
      2        3.2        3.8        4.9        6.2        6.6        8.0        8.1    
      3        3.4        3.8        5.1        6.1        6.4        8.0        8.2    
      4        3.6        3.9        5.2        6.1        6.5        8.1        8.3    



 ****** Results for LAPSVD(L) ******
     with LDA =   81, NB  =    1

 *** Time in seconds ***
       M,N (  10,  10)(  10,  20)(  20,  10)(  20,  20)(  20,  40)(  40,  20)(  40,  40)
   Type
      1       4.07E-03   4.75E-03   6.01E-03   1.62E-02   2.04E-02   2.92E-02   8.46E-02
      2       2.51E-03   3.18E-03   4.02E-03   9.54E-03   1.38E-02   2.11E-02   5.51E-02
      3       4.35E-03   4.96E-03   6.07E-03   1.71E-02   2.28E-02   3.05E-02   9.08E-02
      4       4.09E-03   4.95E-03   6.93E-03   1.56E-02   2.24E-02   3.26E-02   8.75E-02

 *** Number of floating-point operations ***
       M,N (  10,  10)(  10,  20)(  20,  10)(  20,  20)(  20,  40)(  40,  20)(  40,  40)
   Type
      1       1.40E+04   1.79E+04   3.36E+04   9.49E+04   1.31E+05   2.38E+05   6.93E+05
      2       8.04E+03   1.21E+04   2.28E+04   5.85E+04   9.12E+04   1.75E+05   4.47E+05
      3       1.47E+04   1.86E+04   3.36E+04   1.04E+05   1.46E+05   2.46E+05   7.44E+05
      4       1.46E+04   1.92E+04   3.88E+04   9.58E+04   1.46E+05   2.69E+05   7.26E+05

 *** Speed in megaflops ***
       M,N (  10,  10)(  10,  20)(  20,  10)(  20,  20)(  20,  40)(  40,  20)(  40,  40)
   Type
      1        3.4        3.8        5.6        5.9        6.4        8.1        8.2    
      2        3.2        3.8        5.7        6.1        6.6        8.3        8.1    
      3        3.4        3.8        5.5        6.1        6.4        8.1        8.2    
      4        3.6        3.9        5.6        6.1        6.5        8.2        8.3    



 ****** Results for LAPSVD(R) ******
     with LDA =   81, NB  =    1

 *** Time in seconds ***
       M,N (  10,  10)(  10,  20)(  20,  10)(  20,  20)(  20,  40)(  40,  20)(  40,  40)
   Type
      1       3.96E-03   5.83E-03   4.56E-03   1.51E-02   3.04E-02   1.85E-02   8.21E-02
      2       2.47E-03   4.10E-03   2.91E-03   9.26E-03   2.23E-02   1.25E-02   5.52E-02
      3       4.24E-03   6.11E-03   4.61E-03   1.65E-02   3.36E-02   1.88E-02   8.84E-02
      4       4.00E-03   6.07E-03   5.47E-03   1.50E-02   3.31E-02   2.06E-02   8.52E-02

 *** Number of floating-point operations ***
       M,N (  10,  10)(  10,  20)(  20,  10)(  20,  20)(  20,  40)(  40,  20)(  40,  40)
   Type
      1       1.40E+04   3.11E+04   1.90E+04   9.50E+04   2.42E+05   1.27E+05   6.93E+05
      2       8.08E+03   2.20E+04   1.20E+04   5.85E+04   1.73E+05   8.99E+04   4.47E+05
      3       1.48E+04   3.21E+04   1.90E+04   1.04E+05   2.68E+05   1.31E+05   7.44E+05
      4       1.47E+04   3.30E+04   2.23E+04   9.59E+04   2.69E+05   1.44E+05   7.27E+05

 *** Speed in megaflops ***
       M,N (  10,  10)(  10,  20)(  20,  10)(  20,  20)(  20,  40)(  40,  20)(  40,  40)
   Type
      1        3.5        5.3        4.2        6.3        8.0        6.8        8.4    
      2        3.3        5.4        4.1        6.3        7.8        7.2        8.1    
      3        3.5        5.3        4.1        6.3        8.0        7.0        8.4    
      4        3.7        5.4        4.1        6.4        8.1        7.0        8.5    



 ****** Results for LAPSVD(B) ******
     with LDA =   81, NB  =    1

 *** Time in seconds ***
       M,N (  10,  10)(  10,  20)(  20,  10)(  20,  20)(  20,  40)(  40,  20)(  40,  40)
   Type
      1       5.02E-03   6.96E-03   6.39E-03   2.15E-02   3.73E-02   3.02E-02   0.13    
      2       3.13E-03   4.82E-03   3.98E-03   1.29E-02   2.64E-02   1.93E-02   8.11E-02
      3       5.39E-03   7.30E-03   6.47E-03   2.35E-02   4.17E-02   3.11E-02   0.14    
      4       5.09E-03   7.30E-03   7.65E-03   2.12E-02   4.13E-02   3.45E-02   0.13    

 *** Number of floating-point operations ***
       M,N (  10,  10)(  10,  20)(  20,  10)(  20,  20)(  20,  40)(  40,  20)(  40,  40)
   Type
      1       2.12E+04   3.84E+04   3.52E+04   1.53E+05   3.04E+05   2.47E+05   1.15E+06
      2       1.20E+04   2.62E+04   2.05E+04   9.03E+04   2.06E+05   1.58E+05   7.01E+05
      3       2.24E+04   3.98E+04   3.52E+04   1.69E+05   3.41E+05   2.58E+05   1.25E+06
      4       2.22E+04   4.11E+04   4.23E+04   1.54E+05   3.42E+05   2.91E+05   1.22E+06

 *** Speed in megaflops ***
       M,N (  10,  10)(  10,  20)(  20,  10)(  20,  20)(  20,  40)(  40,  20)(  40,  40)
   Type
      1        4.2        5.5        5.5        7.1        8.1        8.2        8.9    
      2        3.8        5.4        5.2        7.0        7.8        8.2        8.6    
      3        4.2        5.5        5.4        7.2        8.2        8.3        8.9    
      4        4.4        5.6        5.5        7.3        8.3        8.4        9.0    



 ****** Results for LINSVD    ******
     with LDA =   81

 *** Time in seconds ***
       M,N (  10,  10)(  10,  20)(  20,  10)(  20,  20)(  20,  40)(  40,  20)(  40,  40)
   Type
      1       2.51E-03   3.91E-03   3.03E-03   9.95E-03   1.70E-02   1.39E-02   4.78E-02
      2       1.92E-03   3.21E-03   2.24E-03   8.10E-03   1.55E-02   1.15E-02   4.22E-02
      3       2.49E-03   4.10E-03   2.85E-03   1.02E-02   1.70E-02   1.46E-02   4.79E-02
      4       2.53E-03   4.35E-03   3.23E-03   1.01E-02   1.78E-02   1.48E-02   4.85E-02

 *** Number of floating-point operations ***
       M,N (  10,  10)(  10,  20)(  20,  10)(  20,  20)(  20,  40)(  40,  20)(  40,  40)
   Type
      1       7.55E+03   1.22E+04   1.18E+04   4.01E+04   7.44E+04   7.18E+04   2.44E+05
      2       5.56E+03   9.89E+03   9.11E+03   3.38E+04   6.86E+04   6.44E+04   2.23E+05
      3       7.38E+03   1.23E+04   1.11E+04   4.05E+04   7.41E+04   7.18E+04   2.43E+05
      4       7.59E+03   1.36E+04   1.24E+04   4.09E+04   7.67E+04   7.56E+04   2.46E+05

 *** Speed in megaflops ***
       M,N (  10,  10)(  10,  20)(  20,  10)(  20,  20)(  20,  40)(  40,  20)(  40,  40)
   Type
      1        3.0        3.1        3.9        4.0        4.4        5.2        5.1    
      2        2.9        3.1        4.1        4.2        4.4        5.6        5.3    
      3        3.0        3.0        3.9        4.0        4.4        4.9        5.1    
      4        3.0        3.1        3.8        4.1        4.3        5.1        5.1    



 ****** Results for LINSVD(l) ******
     with LDA =   81

 *** Time in seconds ***
       M,N (  10,  10)(  10,  20)(  20,  10)(  20,  20)(  20,  40)(  40,  20)(  40,  40)
   Type
      1       3.27E-03   4.66E-03   4.38E-03   1.46E-02   2.18E-02   2.27E-02   8.58E-02
      2       2.57E-03   3.86E-03   3.17E-03   1.19E-02   1.93E-02   1.83E-02   7.38E-02
      3       3.34E-03   4.83E-03   4.26E-03   1.59E-02   2.25E-02   2.53E-02   9.26E-02
      4       3.31E-03   5.24E-03   4.81E-03   1.49E-02   2.33E-02   2.60E-02   8.85E-02

 *** Number of floating-point operations ***
       M,N (  10,  10)(  10,  20)(  20,  10)(  20,  20)(  20,  40)(  40,  20)(  40,  40)
   Type
      1       1.48E+04   1.94E+04   2.77E+04   9.83E+04   1.33E+05   1.94E+05   7.12E+05
      2       1.03E+04   1.44E+04   1.84E+04   7.56E+04   1.12E+05   1.47E+05   5.75E+05
      3       1.44E+04   1.97E+04   2.54E+04   9.99E+04   1.32E+05   1.93E+05   7.02E+05
      4       1.49E+04   2.27E+04   2.99E+04   1.01E+05   1.41E+05   2.18E+05   7.26E+05

 *** Speed in megaflops ***
       M,N (  10,  10)(  10,  20)(  20,  10)(  20,  20)(  20,  40)(  40,  20)(  40,  40)
   Type
      1        4.5        4.2        6.3        6.7        6.1        8.5        8.3    
      2        4.0        3.7        5.8        6.3        5.8        8.0        7.8    
      3        4.3        4.1        5.9        6.3        5.8        7.6        7.6    
      4        4.5        4.3        6.2        6.8        6.1        8.4        8.2    



 ****** Results for LINSVD(L) ******
     with LDA =   81

 *** Time in seconds ***
       M,N (  10,  10)(  10,  20)(  20,  10)(  20,  20)(  20,  40)(  40,  20)(  40,  40)
   Type
      1       3.26E-03   4.67E-03   5.28E-03   1.47E-02   2.17E-02   2.82E-02   8.57E-02
      2       2.52E-03   3.79E-03   4.06E-03   1.19E-02   1.94E-02   2.38E-02   7.35E-02
      3       3.57E-03   4.82E-03   5.13E-03   1.58E-02   2.24E-02   3.03E-02   9.25E-02
      4       3.31E-03   5.25E-03   5.72E-03   1.50E-02   2.33E-02   3.14E-02   8.87E-02

 *** Number of floating-point operations ***
       M,N (  10,  10)(  10,  20)(  20,  10)(  20,  20)(  20,  40)(  40,  20)(  40,  40)
   Type
      1       1.48E+04   1.94E+04   3.40E+04   9.83E+04   1.33E+05   2.43E+05   7.12E+05
      2       1.03E+04   1.44E+04   2.47E+04   7.56E+04   1.12E+05   1.96E+05   5.75E+05
      3       1.44E+04   1.97E+04   3.17E+04   9.99E+04   1.32E+05   2.42E+05   7.02E+05
      4       1.49E+04   2.27E+04   3.62E+04   1.01E+05   1.41E+05   2.67E+05   7.26E+05

 *** Speed in megaflops ***
       M,N (  10,  10)(  10,  20)(  20,  10)(  20,  20)(  20,  40)(  40,  20)(  40,  40)
   Type
      1        4.5        4.2        6.4        6.7        6.1        8.6        8.3    
      2        4.1        3.8        6.1        6.3        5.8        8.2        7.8    
      3        4.0        4.1        6.2        6.3        5.9        8.0        7.6    
      4        4.5        4.3        6.3        6.8        6.1        8.5        8.2    



 ****** Results for LINSVD(R) ******
     with LDA =   81

 *** Time in seconds ***
       M,N (  10,  10)(  10,  20)(  20,  10)(  20,  20)(  20,  40)(  40,  20)(  40,  40)
   Type
      1       3.26E-03   6.14E-03   3.82E-03   1.48E-02   3.17E-02   1.85E-02   8.60E-02
      2       2.52E-03   5.14E-03   2.79E-03   1.20E-02   2.84E-02   1.58E-02   7.37E-02
      3       3.38E-03   6.39E-03   3.84E-03   1.61E-02   3.32E-02   1.95E-02   9.30E-02
      4       3.28E-03   6.90E-03   4.18E-03   1.51E-02   3.40E-02   2.09E-02   9.01E-02

 *** Number of floating-point operations ***
       M,N (  10,  10)(  10,  20)(  20,  10)(  20,  20)(  20,  40)(  40,  20)(  40,  40)
   Type
      1       1.46E+04   3.39E+04   1.93E+04   9.76E+04   2.47E+05   1.30E+05   7.09E+05
      2       1.01E+04   2.62E+04   1.33E+04   7.48E+04   2.11E+05   1.03E+05   5.71E+05
      3       1.42E+04   3.45E+04   1.78E+04   9.92E+04   2.45E+05   1.29E+05   6.99E+05
      4       1.47E+04   3.90E+04   2.07E+04   1.00E+05   2.62E+05   1.44E+05   7.23E+05

 *** Speed in megaflops ***
       M,N (  10,  10)(  10,  20)(  20,  10)(  20,  20)(  20,  40)(  40,  20)(  40,  40)
   Type
      1        4.5        5.5        5.1        6.6        7.8        7.0        8.2    
      2        4.0        5.1        4.8        6.3        7.4        6.5        7.8    
      3        4.2        5.4        4.6        6.2        7.4        6.7        7.5    
      4        4.5        5.7        5.0        6.6        7.7        6.9        8.0    



 ****** Results for LINSVD(B) ******
     with LDA =   81

 *** Time in seconds ***
       M,N (  10,  10)(  10,  20)(  20,  10)(  20,  20)(  20,  40)(  40,  20)(  40,  40)
   Type
      1       4.00E-03   7.00E-03   5.13E-03   2.01E-02   3.87E-02   2.85E-02   0.13    
      2       3.28E-03   5.75E-03   3.70E-03   1.62E-02   3.37E-02   2.26E-02   0.11    
      3       4.18E-03   7.32E-03   5.32E-03   2.25E-02   4.09E-02   3.10E-02   0.15    
      4       4.06E-03   7.92E-03   5.72E-03   2.07E-02   4.20E-02   3.33E-02   0.14    

 *** Number of floating-point operations ***
       M,N (  10,  10)(  10,  20)(  20,  10)(  20,  20)(  20,  40)(  40,  20)(  40,  40)
   Type
      1       2.18E+04   4.12E+04   3.53E+04   1.56E+05   3.06E+05   2.52E+05   1.18E+06
      2       1.49E+04   3.07E+04   2.27E+04   1.17E+05   2.54E+05   1.85E+05   9.23E+05
      3       2.12E+04   4.20E+04   3.21E+04   1.59E+05   3.03E+05   2.51E+05   1.16E+06
      4       2.20E+04   4.82E+04   3.82E+04   1.61E+05   3.27E+05   2.86E+05   1.20E+06

 *** Speed in megaflops ***
       M,N (  10,  10)(  10,  20)(  20,  10)(  20,  20)(  20,  40)(  40,  20)(  40,  40)
   Type
      1        5.5        5.9        6.9        7.8        7.9        8.8        8.9    
      2        4.6        5.3        6.1        7.2        7.5        8.2        8.5    
      3        5.1        5.7        6.0        7.0        7.4        8.1        8.0    
      4        5.4        6.1        6.7        7.8        7.8        8.6        8.5    


 End of timing run
 Total time used =        25.00 seconds

 Note: IEEE floating-point exception flags raised: 
    Inexact;  Underflow; 
 See the Numerical Computation Guide, ieee_flags(3M) 
