 LAPACK VERSION 2.0, released September 30, 1994 

 LAPACK timing, COMPLEX*16 square matrices

    M:          10    20    40    60    80
    N:          10    20    40    60    80
    K:          20    80
    NB:          1     8
    NX:          0     8
    LDA:        81
 
 The minimum time a subroutine will be timed =  0.050 seconds
 

 ------------------------------
 >>>>>    Sample BLAS     <<<<<
 ------------------------------

 *** Speed of ZGEMV  in megaflops ***
     with LDA =    81
 
         N    10      20      40      60      80
       
            12.8    14.4    10.7    10.8    10.7
 

 *** Speed of ZGEMM  in megaflops ***
     with LDA =    81
 
         N    10      20      40      60      80
       
            13.8    15.0    10.9    10.9    10.9
 

 ------------------------------
 >>>>>    Timing data     <<<<<
 ------------------------------

 *** Speed of ZGETRF in megaflops ***
 
         N    10      20      40      60      80
     NB
      1      6.9    11.8    12.0    12.0    12.1
      8      5.2    10.0    12.6    12.9    12.7
 

 *** Speed of ZGETRS in megaflops ***
 
         N    10      20      40      60      80
   NRHS
     20      8.2    10.8    10.7    10.6    10.8
     80      8.1    10.9    10.7    10.5    10.8
 

 *** Speed of ZGETRI in megaflops ***
 
         N    10      20      40      60      80
     NB
      1      6.6    11.6    11.0    10.6    10.5
      8      5.3    10.3    10.9    10.6    10.5
 

 *** Speed of ZPOTRF in megaflops ***
 
     ZPOTRF with UPLO = 'U'

         N    10      20      40      60      80
     NB
      1      4.3     8.3    12.2    14.5    15.5
      8      3.4     6.8     9.8    11.7    12.7
 
     ZPOTRF with UPLO = 'L'

         N    10      20      40      60      80
     NB
      1      4.2     8.2    11.0    10.3    10.0
      8      3.3     6.8    11.2    10.9    10.2
 

 *** Speed of ZPOTRS in megaflops ***
 
     ZPOTRS with UPLO = 'U'

         N    10      20      40      60      80
   NRHS
     20      8.1    10.4     9.4     9.3     9.5
     80      8.0    10.2     9.7     9.4     9.5
 
     ZPOTRS with UPLO = 'L'

         N    10      20      40      60      80
   NRHS
     20      8.1    10.4     9.7     9.3     9.5
     80      7.9    10.5     9.7     9.3     9.5
 

 *** Speed of ZPOTRI in megaflops ***
 
     ZPOTRI with UPLO = 'U'

         N    10      20      40      60      80
     NB
      1      4.5     9.2    11.5    10.9    10.6
      8      3.2     7.0    10.3    10.6    10.3
 
     ZPOTRI with UPLO = 'L'

         N    10      20      40      60      80
     NB
      1      4.3     8.7    12.1    12.1    12.0
      8      3.2     6.7    10.4    10.6    11.5
 

 *** Speed of ZPPTRF in megaflops ***

     ZPPTRF with UPLO = 'U'

         N    10      20      40      60      80
       
             4.7     8.3    10.1     9.0     8.8
 
     ZPPTRF with UPLO = 'L'

         N    10      20      40      60      80
       
             7.3    11.9    14.2    13.0    12.8
 

 *** Speed of ZPPTRS in megaflops ***

     ZPPTRS with UPLO = 'U'

         N    10      20      40      60      80
   NRHS
     20      6.9    10.6    10.8     9.9     9.7
     80      7.1    10.7    10.8    10.0     9.7
 
     ZPPTRS with UPLO = 'L'

         N    10      20      40      60      80
   NRHS
     20      6.8    10.4    10.7    10.0     9.8
     80      6.9    10.6    10.9    10.0     9.8
 

 *** Speed of ZPPTRI in megaflops ***

     ZPPTRI with UPLO = 'U'

         N    10      20      40      60      80
       
             6.6    11.4    14.0    12.2    11.9
 
     ZPPTRI with UPLO = 'L'

         N    10      20      40      60      80
       
             5.0     9.8    13.7    12.9    12.8
 

 *** Speed of ZHETRF in megaflops ***

     ZHETRF with UPLO = 'U'

         N    10      20      40      60      80
     NB
      1      3.5     6.6     9.9    10.4    10.9
      8      2.2     4.5     7.4     9.0    10.0
 

     ZHETRF with UPLO = 'L'

         N    10      20      40      60      80
     NB
      1      3.5     6.5     9.8    10.3    10.7
      8      2.5     4.7     7.2     9.0     9.9
 

 *** Speed of ZHETRS in megaflops ***

     ZHETRS with UPLO = 'U'

         N    10      20      40      60      80
   NRHS
     20      6.5     9.2    11.8    12.4    12.7
     80      6.5     8.7    11.2    12.2    12.7
 

     ZHETRS with UPLO = 'L'

         N    10      20      40      60      80
   NRHS
     20      6.6     9.1    11.9    12.4    12.6
     80      6.7     8.8    11.5    12.3    12.7
 

 *** Speed of ZHETRI in megaflops ***

     ZHETRI with UPLO = 'U'

         N    10      20      40      60      80
       
             5.4    10.4    14.1    14.7    15.1
 

     ZHETRI with UPLO = 'L'

         N    10      20      40      60      80
       
             5.0    10.0    13.6    14.5    14.9
 

 *** Speed of ZHPTRF in megaflops ***

     ZHPTRF with UPLO = 'U'

         N    10      20      40      60      80
       
             4.0     7.3    10.4    10.6    11.1
 
     ZHPTRF with UPLO = 'L'

         N    10      20      40      60      80
       
             3.6     6.8    10.0    10.4    10.6
 

 *** Speed of ZHPTRS in megaflops ***

     ZHPTRS with UPLO = 'U'

         N    10      20      40      60      80
   NRHS
     20      6.7     9.5    11.6    12.4    12.7
     80      7.0     9.0    11.0    12.1    12.7
 
     ZHPTRS with UPLO = 'L'

         N    10      20      40      60      80
   NRHS
     20      6.2     9.2    11.5    12.5    12.5
     80      6.4     8.9    11.0    12.3    12.6
 

 *** Speed of ZHPTRI in megaflops ***

     ZHPTRI with UPLO = 'U'

         N    10      20      40      60      80
       
             5.4    10.4    14.3    14.8    15.0
 
     ZHPTRI with UPLO = 'L'

         N    10      20      40      60      80
       
             4.8     9.7    13.6    14.5    14.8
 

 *** Speed of ZSYTRF in megaflops ***
 
     ZSYTRF with UPLO = 'U'

         N    10      20      40      60      80
     NB
      1      3.4     6.9    10.7    11.3    11.4
      8      2.6     5.0     7.7     9.3    10.1
 
     ZSYTRF with UPLO = 'L'

         N    10      20      40      60      80
     NB
      1      3.5     7.1    10.4    10.9    11.3
      8      2.6     5.1     7.5     9.4    10.0
 

 *** Speed of ZSYTRS in megaflops ***
 
     ZSYTRS with UPLO = 'U'

         N    10      20      40      60      80
   NRHS
     20     10.3    12.7    13.4    14.2    14.0
     80     10.5    12.0    12.7    14.0    14.1
 
     ZSYTRS with UPLO = 'L'

         N    10      20      40      60      80
   NRHS
     20      8.7    10.9    13.5    13.7    14.2
     80      9.2    10.5    12.8    13.7    14.3
 

 *** Speed of ZSYTRI in megaflops ***
 
     ZSYTRI with UPLO = 'U'

         N    10      20      40      60      80
       
             5.2     9.9    14.2    15.3    15.7
 
     ZSYTRI with UPLO = 'L'

         N    10      20      40      60      80
       
             4.5     9.2    13.8    14.7    15.6
 

 *** Speed of ZSPTRF in megaflops ***

     ZSPTRF with UPLO = 'U'

         N    10      20      40      60      80
       
             3.6     7.4    11.2    11.2    11.7
 
     ZSPTRF with UPLO = 'L'

         N    10      20      40      60      80
       
             3.7     7.1    10.5    11.1    11.5
 

 *** Speed of ZSPTRS in megaflops ***

     ZSPTRS with UPLO = 'U'

         N    10      20      40      60      80
   NRHS
     20     10.4    13.1    14.2    13.8    14.1
     80     11.1    12.2    13.4    13.6    14.1
 
     ZSPTRS with UPLO = 'L'

         N    10      20      40      60      80
   NRHS
     20      8.0    13.0    14.8    14.0    14.1
     80      8.2    12.3    14.1    13.7    14.1
 

 *** Speed of ZSPTRI in megaflops ***

     ZSPTRI with UPLO = 'U'

         N    10      20      40      60      80
       
             5.8    10.6    14.7    15.5    15.8
 
     ZSPTRI with UPLO = 'L'

         N    10      20      40      60      80
       
             5.6    11.0    14.8    15.5    16.0
 

 *** Speed of ZTRTRI in megaflops ***
 
     ZTRTRI with UPLO = 'U'

         N    10      20      40      60      80
     NB
      1      4.3     9.8    12.8    11.5    11.1
      8      2.8     6.8    10.6    10.4    10.3
 
     ZTRTRI with UPLO = 'L'

         N    10      20      40      60      80
     NB
      1      3.9     9.2    12.3    11.1    10.7
      8      2.8     6.3     9.4    10.2    10.2
 

 *** Speed of ZTRTRS in megaflops ***
 
     ZTRTRS with UPLO = 'U'

         N    10      20      40      60      80
   NRHS
     20      7.0     9.6     9.9    10.1    10.3
     80      7.1     9.6    10.0    10.1    10.5
 
     ZTRTRS with UPLO = 'L'

         N    10      20      40      60      80
   NRHS
     20      7.0     9.6     9.8    10.1    10.5
     80      7.1     9.9    10.1    10.1    10.5
 

 *** Speed of ZTPTRI in megaflops ***

     ZTPTRI with UPLO = 'U'

         N    10      20      40      60      80
       
             5.3    11.2    14.0    11.6    11.0
 
     ZTPTRI with UPLO = 'L'

         N    10      20      40      60      80
       
             4.6    10.3    13.4    11.2    10.8
 

 *** Speed of ZTPTRS in megaflops ***

     ZTPTRS with UPLO = 'U'

         N    10      20      40      60      80
   NRHS
     20      5.1     8.5     8.7     8.9     9.2
     80      5.2     8.6     8.8     8.8     9.2
 
     ZTPTRS with UPLO = 'L'

         N    10      20      40      60      80
   NRHS
     20      6.0     9.5     9.4     9.5     9.8
     80      6.1     9.7     9.5     9.4     9.8
 

 *** Speed of ZGEQRF in megaflops ***
 
             M     10      20      40      60      80
             N     10      20      40      60      80
 (  NB,  NX)
 (   1,   0)      2.4    11.1    13.4    13.9    14.0
 (   8,   8)      3.5     7.2    11.1    12.4    12.9
 

 *** Speed of ZUNGQR in megaflops ***
 
     K = min(M,N)

             M     10      20      40      60      80
             N     10      20      40      60      80
 (  NB,  NX)
 (   1,   0)      7.6    12.4    13.9    14.1    14.2
 (   8,   8)      3.5     7.0    10.7    11.9    12.5
 

 *** Speed of ZUNMQR in megaflops ***

     ZUNMQR with SIDE = 'L', TRANS = 'N', N =    20

         M    10      20      40      60      80
         K    10      20      40      60      80
     NB
      1     10.2    13.0    14.7    14.4    14.3
      8      6.0     8.6    10.9    11.5    11.9
 

     ZUNMQR with SIDE = 'L', TRANS = 'N', N =    80

         M    10      20      40      60      80
         K    10      20      40      60      80
     NB
      1     10.5    12.4    13.7    14.1    14.2
      8      7.3     9.8    12.1    12.8    13.1
 

     ZUNMQR with SIDE = 'L', TRANS = 'C', N =    20

         M    10      20      40      60      80
         K    10      20      40      60      80
     NB
      1     10.2    12.6    14.7    14.5    14.3
      8      6.0     8.6    10.9    11.5    11.9
 

     ZUNMQR with SIDE = 'L', TRANS = 'C', N =    80

         M    10      20      40      60      80
         K    10      20      40      60      80
     NB
      1     10.6    12.5    13.7    14.1    14.3
      8      7.3     9.8    12.1    12.8    13.0
 

     ZUNMQR with SIDE = 'R', TRANS = 'N', M =    20

         N    10      20      40      60      80
         K    10      20      40      60      80
     NB
      1     11.8    14.5    12.9    12.1    11.8
      8      6.9     9.3    10.7    10.9    11.3
 

     ZUNMQR with SIDE = 'R', TRANS = 'N', M =    80

         N    10      20      40      60      80
         K    10      20      40      60      80
     NB
      1     12.8    11.6    11.5    11.6    11.6
      8      8.4     9.8    10.5    10.9    11.1
 

     ZUNMQR with SIDE = 'R', TRANS = 'C', M =    20

         N    10      20      40      60      80
         K    10      20      40      60      80
     NB
      1     11.9    14.4    12.9    12.0    11.9
      8      7.0     9.3    10.8    11.0    11.3
 

     ZUNMQR with SIDE = 'R', TRANS = 'C', M =    80

         N    10      20      40      60      80
         K    10      20      40      60      80
     NB
      1     12.8    11.6    11.6    11.6    11.6
      8      8.4     9.8    10.5    10.9    11.1
 

 *** Speed of ZGELQF in megaflops ***
 
             M     10      20      40      60      80
             N     10      20      40      60      80
 (  NB,  NX)
 (   1,   0)      5.8    10.4    11.3    11.3    11.3
 (   8,   8)      3.3     6.6     9.7    10.6    10.7
 

 *** Speed of ZUNGLQ in megaflops ***
 
     K = min(M,N)

             M     10      20      40      60      80
             N     10      20      40      60      80
 (  NB,  NX)
 (   1,   0)      6.7    11.5    11.6    11.4    11.5
 (   8,   8)      3.2     6.5     9.5    10.3    10.5
 

 *** Speed of ZUNMLQ in megaflops ***

     ZUNMLQ with SIDE = 'L', TRANS = 'N', N =    20

         K    10      20      40      60      80
         M    10      20      40      60      80
     NB
      1      9.9    12.6    14.3    14.0    14.0
      8      6.0     7.7     8.8     9.2     9.3
 

     ZUNMLQ with SIDE = 'L', TRANS = 'N', N =    80

         K    10      20      40      60      80
         M    10      20      40      60      80
     NB
      1     10.5    12.3    13.6    14.0    14.1
      8      7.5     8.9     9.9    10.2    10.5
 

     ZUNMLQ with SIDE = 'L', TRANS = 'C', N =    20

         K    10      20      40      60      80
         M    10      20      40      60      80
     NB
      1      9.9    12.6    13.9    14.0    13.9
      8      6.1     7.7     8.8     8.9     9.3
 

     ZUNMLQ with SIDE = 'L', TRANS = 'C', N =    80

         K    10      20      40      60      80
         M    10      20      40      60      80
     NB
      1     10.4    12.3    13.6    14.0    14.1
      8      7.5     8.9    10.0    10.3    10.4
 

     ZUNMLQ with SIDE = 'R', TRANS = 'N', M =    20

         K    10      20      40      60      80
         N    10      20      40      60      80
     NB
      1     10.8    13.3    12.2    11.6    11.3
      8      6.8     8.9    10.2    10.4    10.6
 

     ZUNMLQ with SIDE = 'R', TRANS = 'N', M =    80

         K    10      20      40      60      80
         N    10      20      40      60      80
     NB
      1     12.5    11.4    11.4    11.4    11.4
      8      8.4     9.7    10.4    10.7    10.9
 

     ZUNMLQ with SIDE = 'R', TRANS = 'C', M =    20

         K    10      20      40      60      80
         N    10      20      40      60      80
     NB
      1     10.7    13.4    12.2    11.6    11.3
      8      6.8     9.0    10.2    10.4    10.6
 

     ZUNMLQ with SIDE = 'R', TRANS = 'C', M =    80

         K    10      20      40      60      80
         N    10      20      40      60      80
     NB
      1     12.5    11.4    11.4    11.4    11.5
      8      8.4     9.8    10.3    10.7    10.9
 

 *** Speed of ZGEQLF in megaflops ***
 
             M     10      20      40      60      80
             N     10      20      40      60      80
 (  NB,  NX)
 (   1,   0)      6.1    10.7    13.2    13.8    14.0
 (   8,   8)      3.4     7.1    11.1    12.3    12.9
 

 *** Speed of ZUNGQL in megaflops ***
 
     K = min(M,N)

             M     10      20      40      60      80
             N     10      20      40      60      80
 (  NB,  NX)
 (   1,   0)      7.5    12.3    13.8    14.1    14.2
 (   8,   8)      3.5     7.1    10.8    11.9    12.5
 

 *** Speed of ZUNMQL in megaflops ***

     ZUNMQL with SIDE = 'L', TRANS = 'N', N =    20

         M    10      20      40      60      80
         K    10      20      40      60      80
     NB
      1     10.2    13.0    14.6    14.4    14.3
      8      6.9     9.0    10.9    11.7    11.9
 

     ZUNMQL with SIDE = 'L', TRANS = 'N', N =    80

         M    10      20      40      60      80
         K    10      20      40      60      80
     NB
      1     10.6    12.4    13.6    14.1    14.2
      8      8.5    10.2    12.1    12.9    13.1
 

     ZUNMQL with SIDE = 'L', TRANS = 'C', N =    20

         M    10      20      40      60      80
         K    10      20      40      60      80
     NB
      1     10.1    13.1    14.6    14.4    14.3
      8      6.9     9.0    10.9    11.8    11.8
 

     ZUNMQL with SIDE = 'L', TRANS = 'C', N =    80

         M    10      20      40      60      80
         K    10      20      40      60      80
     NB
      1     10.6    12.4    13.7    14.1    14.2
      8      8.5    10.1    12.0    12.9    13.0
 

     ZUNMQL with SIDE = 'R', TRANS = 'N', M =    20

         N    10      20      40      60      80
         K    10      20      40      60      80
     NB
      1     11.8    14.1    12.8    12.2    11.9
      8      6.9     9.4    10.8    11.2    11.3
 

     ZUNMQL with SIDE = 'R', TRANS = 'N', M =    80

         N    10      20      40      60      80
         K    10      20      40      60      80
     NB
      1     12.9    11.7    11.6    11.6    11.6
      8      8.4     9.9    10.5    10.9    11.0
 

     ZUNMQL with SIDE = 'R', TRANS = 'C', M =    20

         N    10      20      40      60      80
         K    10      20      40      60      80
     NB
      1     11.9    14.3    13.0    12.2    11.9
      8      7.0     9.5    10.9    11.2    11.4
 

     ZUNMQL with SIDE = 'R', TRANS = 'C', M =    80

         N    10      20      40      60      80
         K    10      20      40      60      80
     NB
      1     13.2    11.8    11.6    11.6    11.6
      8      8.4    10.0    10.5    10.9    11.1
 

 *** Speed of ZGERQF in megaflops ***
 
             M     10      20      40      60      80
             N     10      20      40      60      80
 (  NB,  NX)
 (   1,   0)      5.9    10.4    11.3    11.1    11.4
 (   8,   8)      3.3     6.6     9.6    10.6    10.6
 

 *** Speed of ZUNGRQ in megaflops ***
 
     K = min(M,N)

             M     10      20      40      60      80
             N     10      20      40      60      80
 (  NB,  NX)
 (   1,   0)      6.5    11.3    11.6    11.3    11.5
 (   8,   8)      3.1     6.4     9.4    10.3    10.5
 

 *** Speed of ZUNMRQ in megaflops ***

     ZUNMRQ with SIDE = 'L', TRANS = 'N', N =    20

         K    10      20      40      60      80
         M    10      20      40      60      80
     NB
      1      9.9    12.6    14.1    13.9    13.8
      8      6.1     7.5     8.8     9.0     9.2
 

     ZUNMRQ with SIDE = 'L', TRANS = 'N', N =    80

         K    10      20      40      60      80
         M    10      20      40      60      80
     NB
      1     10.4    12.3    13.6    14.0    14.1
      8      7.5     8.7     9.9    10.1    10.4
 

     ZUNMRQ with SIDE = 'L', TRANS = 'C', N =    20

         K    10      20      40      60      80
         M    10      20      40      60      80
     NB
      1      9.9    12.6    14.1    13.9    13.8
      8      6.1     7.6     8.8     9.0     9.2
 

     ZUNMRQ with SIDE = 'L', TRANS = 'C', N =    80

         K    10      20      40      60      80
         M    10      20      40      60      80
     NB
      1     10.5    12.4    13.6    13.9    14.1
      8      7.5     8.8     9.9    10.0    10.4
 

     ZUNMRQ with SIDE = 'R', TRANS = 'N', M =    20

         K    10      20      40      60      80
         N    10      20      40      60      80
     NB
      1     11.5    13.4    12.4    11.7    11.4
      8      6.9     9.2    10.1    10.4    10.5
 

     ZUNMRQ with SIDE = 'R', TRANS = 'N', M =    80

         K    10      20      40      60      80
         N    10      20      40      60      80
     NB
      1     13.1    11.7    11.5    11.5    11.5
      8      8.4     9.9    10.4    10.8    10.9
 

     ZUNMRQ with SIDE = 'R', TRANS = 'C', M =    20

         K    10      20      40      60      80
         N    10      20      40      60      80
     NB
      1     11.5    13.4    12.3    11.6    11.4
      8      6.8     9.1    10.2    10.4    10.5
 

     ZUNMRQ with SIDE = 'R', TRANS = 'C', M =    80

         K    10      20      40      60      80
         N    10      20      40      60      80
     NB
      1     12.8    11.6    11.5    11.5    11.5
      8      8.5     9.8    10.3    10.8    10.8
 

 *** Speed of ZGEQPF in megaflops ***
 
         M    10      20      40      60      80
         N    10      20      40      60      80
   Type
      2      4.5     8.0    10.6    11.7    12.3
      3      4.4     7.7    10.4    11.6    12.2
 

 *** Speed of ZGEHRD in megaflops *** 

     ILO = 1, IHI = N

             N     10      20      40      60      80
 (  NB,  NX)
 (   1,   0)      7.7    12.7    12.6    12.5    12.5
 (   8,   8)      3.6     7.8    10.5    11.7    11.6
 

 *** Speed of ZUNGHR in megaflops *** 

     ILO = 1, IHI = N

             N     10      20      40      60      80
 (  NB,  NX)
 (   1,   0)      6.5    11.6    13.5    13.9    14.1
 (   8,   8)      2.9     6.6    10.4    11.7    12.3
 

     ZUNMHR with SIDE = 'L', TRANS = 'N', N =    20

         M    10      20      40      60      80
     NB
      1      9.6    12.8    14.6    14.4    14.3
      8      5.5     8.3    10.8    11.5    11.8
 

     ZUNMHR with SIDE = 'L', TRANS = 'N', N =    80

         M    10      20      40      60      80
     NB
      1     10.1    12.3    13.6    14.1    14.3
      8      6.7     9.6    12.1    12.8    13.1
 

     ZUNMHR with SIDE = 'L', TRANS = 'C', N =    20

         M    10      20      40      60      80
     NB
      1      9.5    12.8    14.6    14.5    14.3
      8      5.5     8.3    10.8    11.6    11.9
 

     ZUNMHR with SIDE = 'L', TRANS = 'C', N =    80

         M    10      20      40      60      80
     NB
      1     10.2    12.3    13.6    14.1    14.0
      8      6.7     9.6    12.1    12.8    13.1
 

     ZUNMHR with SIDE = 'R', TRANS = 'N', M =    20

         N    10      20      40      60      80
     NB
      1     11.2    14.3    13.0    12.2    11.7
      8      6.3     9.0    10.7    11.1    11.3
 

     ZUNMHR with SIDE = 'R', TRANS = 'N', M =    80

         N    10      20      40      60      80
     NB
      1     12.9    11.6    11.5    11.6    11.6
      8      8.0     9.7    10.5    10.9    11.1
 

     ZUNMHR with SIDE = 'R', TRANS = 'C', M =    20

         N    10      20      40      60      80
     NB
      1     11.1    14.3    13.0    12.2    11.7
      8      6.4     9.1    10.8    11.1    11.3
 

     ZUNMHR with SIDE = 'R', TRANS = 'C', M =    80

         N    10      20      40      60      80
     NB
      1     12.9    11.6    11.5    11.6    11.6
      8      8.0     9.7    10.5    10.9    11.1
 

 *** Speed of ZHETRD in megaflops *** 

     ZHETRD with UPLO = 'U'

             N     10      20      40      60      80
 (  NB,  NX)
 (   1,   0)      6.3    11.0    14.5    15.2    15.3
 (   8,   8)      3.0     6.4    10.4    12.0    12.9
 

     ZHETRD with UPLO = 'L'

             N     10      20      40      60      80
 (  NB,  NX)
 (   1,   0)      6.0    10.7    14.4    15.3    15.5
 (   8,   8)      2.9     6.4    10.3    11.8    12.8
 

 *** Speed of ZUNGTR in megaflops *** 

     ZUNGTR with UPLO = 'U'

             N     10      20      40      60      80
 (  NB,  NX)
 (   1,   0)      6.5    11.6    13.6    14.0    14.1
 (   8,   8)      2.8     6.6    10.5    11.8    12.4
 

     ZUNGTR with UPLO = 'L'

             N     10      20      40      60      80
 (  NB,  NX)
 (   1,   0)      6.7    11.7    13.7    14.0    14.2
 (   8,   8)      2.9     6.6    10.5    11.8    12.4
 

     ZUNMTR with SIDE = 'L', UPLO = 'U', TRANS = 'N', N =    20

         M    10      20      40      60      80
     NB
      1      9.6    12.8    14.6    14.4    14.3
      8      6.5     8.8    10.9    11.7    12.0
 

     ZUNMTR with SIDE = 'L', UPLO = 'L', TRANS = 'N', N =    20

         M    10      20      40      60      80
     NB
      1      9.6    12.7    14.6    14.5    14.3
      8      5.5     8.2    10.9    11.6    11.9
 

     ZUNMTR with SIDE = 'L', UPLO = 'U', TRANS = 'N', N =    80

         M    10      20      40      60      80
     NB
      1     10.2    12.3    13.6    14.1    14.2
      8      8.1    10.0    12.1    12.7    13.2
 

     ZUNMTR with SIDE = 'L', UPLO = 'L', TRANS = 'N', N =    80

         M    10      20      40      60      80
     NB
      1      9.9    12.4    13.7    14.1    14.3
      8      6.7     9.6    12.1    12.8    13.1
 

     ZUNMTR with SIDE = 'L', UPLO = 'U', TRANS = 'C', N =    20

         M    10      20      40      60      80
     NB
      1      9.6    12.8    14.6    14.4    14.0
      8      6.5     8.8    10.9    11.7    12.0
 

     ZUNMTR with SIDE = 'L', UPLO = 'L', TRANS = 'C', N =    20

         M    10      20      40      60      80
     NB
      1      9.6    12.7    14.5    14.4    14.3
      8      5.5     8.3    10.9    11.6    11.9
 

     ZUNMTR with SIDE = 'L', UPLO = 'U', TRANS = 'C', N =    80

         M    10      20      40      60      80
     NB
      1     10.1    12.3    13.6    14.1    14.2
      8      8.1     9.9    12.1    12.9    13.1
 

     ZUNMTR with SIDE = 'L', UPLO = 'L', TRANS = 'C', N =    80

         M    10      20      40      60      80
     NB
      1     10.0    12.3    13.6    14.1    14.3
      8      6.7     9.6    12.1    12.8    13.1
 

     ZUNMTR with SIDE = 'R', UPLO = 'U', TRANS = 'N', M =    20

         N    10      20      40      60      80
     NB
      1     11.2    14.0    12.9    12.1    11.9
      8      6.4     9.3    10.8    11.1    11.3
 

     ZUNMTR with SIDE = 'R', UPLO = 'L', TRANS = 'N', M =    20

         N    10      20      40      60      80
     NB
      1     11.1    14.2    12.9    12.2    11.9
      8      6.3     9.1    10.8    11.1    11.3
 

     ZUNMTR with SIDE = 'R', UPLO = 'U', TRANS = 'N', M =    80

         N    10      20      40      60      80
     NB
      1     13.1    11.7    11.6    11.6    11.6
      8      8.0     9.8    10.6    10.9    11.1
 

     ZUNMTR with SIDE = 'R', UPLO = 'L', TRANS = 'N', M =    80

         N    10      20      40      60      80
     NB
      1     12.9    11.6    11.5    11.6    11.6
      8      8.0     9.6    10.5    10.9    11.1
 

     ZUNMTR with SIDE = 'R', UPLO = 'U', TRANS = 'C', M =    20

         N    10      20      40      60      80
     NB
      1     11.4    14.1    13.0    12.2    11.8
      8      6.4     9.3    10.9    11.1    11.3
 

     ZUNMTR with SIDE = 'R', UPLO = 'L', TRANS = 'C', M =    20

         N    10      20      40      60      80
     NB
      1     11.1    14.3    12.8    12.2    11.9
      8      6.4     9.1    10.8    11.1    11.3
 

     ZUNMTR with SIDE = 'R', UPLO = 'U', TRANS = 'C', M =    80

         N    10      20      40      60      80
     NB
      1     13.4    11.9    11.6    11.6    11.6
      8      7.9     9.8    10.6    10.9    11.2
 

     ZUNMTR with SIDE = 'R', UPLO = 'L', TRANS = 'C', M =    80

         N    10      20      40      60      80
     NB
      1     12.8    11.6    11.5    11.6    11.6
      8      8.0     9.7    10.5    10.9    10.9
 

 *** Speed of ZGEBRD in megaflops ***
 
             M     10      20      40      60      80
             N     10      20      40      60      80
 (  NB,  NX)
 (   1,   0)      6.1    10.8    12.3    12.4    12.6
 (   8,   8)      2.9     6.0     9.1    10.3    10.8
 

 *** Speed of ZUNGBR in megaflops ***

     ZUNGBR with VECT = 'Q', N = MIN(M,K)

             M     10      20      40      60      80
             K     10      20      40      60      80
 (  NB,  NX)
 (   1,   0)      7.7    12.4    13.8    14.2    14.3
 (   8,   8)      3.5     7.1    10.7    11.9    12.5
 

     ZUNGBR with VECT = 'P', M = MIN(K,N)

             K     10      20      40      60      80
             N     10      20      40      60      80
 (  NB,  NX)
 (   1,   0)      5.8    10.9    11.5    11.4    11.4
 (   8,   8)      2.7     6.1     9.3    10.2    10.5
 

 *** Speed of ZUNMBR in megaflops ***

     ZUNMBR with VECT = 'Q', SIDE = 'L', TRANS = 'N', N =    20

         M    10      20      40      60      80
         K    10      20      40      60      80
     NB
      1     10.0    12.8    14.5    14.4    14.2
      8      6.0     8.5    10.9    11.4    11.6
 

     ZUNMBR with VECT = 'Q', SIDE = 'L', TRANS = 'N', N =    80

         M    10      20      40      60      80
         K    10      20      40      60      80
     NB
      1     10.4    12.3    13.7    14.1    14.1
      8      7.3     9.8    12.0    12.8    13.1
 

     ZUNMBR with VECT = 'Q', SIDE = 'L', TRANS = 'C', N =    20

         M    10      20      40      60      80
         K    10      20      40      60      80
     NB
      1     10.0    12.2    14.5    14.4    14.3
      8      5.9     8.6    10.9    11.6    11.8
 

     ZUNMBR with VECT = 'Q', SIDE = 'L', TRANS = 'C', N =    80

         M    10      20      40      60      80
         K    10      20      40      60      80
     NB
      1     10.4    12.4    13.7    14.1    14.2
      8      7.2     9.7    12.1    12.8    13.0
 

     ZUNMBR with VECT = 'Q', SIDE = 'R', TRANS = 'N', M =    20

         N    10      20      40      60      80
         K    10      20      40      60      80
     NB
      1     11.4    14.3    12.9    12.1    11.8
      8      6.8     9.3    10.6    11.1    11.2
 

     ZUNMBR with VECT = 'Q', SIDE = 'R', TRANS = 'N', M =    80

         N    10      20      40      60      80
         K    10      20      40      60      80
     NB
      1     12.7    11.6    11.5    11.6    11.6
      8      8.3     9.8    10.5    10.9    11.1
 

     ZUNMBR with VECT = 'Q', SIDE = 'R', TRANS = 'C', M =    20

         N    10      20      40      60      80
         K    10      20      40      60      80
     NB
      1     11.4    14.3    12.8    12.1    11.9
      8      6.8     9.3    10.8    11.1    11.3
 

     ZUNMBR with VECT = 'Q', SIDE = 'R', TRANS = 'C', M =    80

         N    10      20      40      60      80
         K    10      20      40      60      80
     NB
      1     12.6    11.6    11.5    11.6    11.6
      8      7.9     9.8    10.5    10.9    11.1
 

     ZUNMBR with VECT = 'P', SIDE = 'L', TRANS = 'N', N =    20

         K    10      20      40      60      80
         M    10      20      40      60      80
     NB
      1     11.3    13.6    14.9    14.6    14.3
      8      6.6     8.3     9.2     9.4     9.5
 

     ZUNMBR with VECT = 'P', SIDE = 'L', TRANS = 'N', N =    80

         K    10      20      40      60      80
         M    10      20      40      60      80
     NB
      1     12.2    13.4    14.1    14.4    14.5
      8      8.2     9.6    10.4    10.6    10.7
 

     ZUNMBR with VECT = 'P', SIDE = 'L', TRANS = 'C', N =    20

         K    10      20      40      60      80
         M    10      20      40      60      80
     NB
      1     11.3    13.6    14.9    14.6    14.3
      8      6.5     8.3     9.2     9.4     9.5
 

     ZUNMBR with VECT = 'P', SIDE = 'L', TRANS = 'C', N =    80

         K    10      20      40      60      80
         M    10      20      40      60      80
     NB
      1     12.2    13.5    14.0    14.5    14.5
      8      8.1     9.7    10.4    10.6    10.7
 

     ZUNMBR with VECT = 'P', SIDE = 'R', TRANS = 'N', M =    20

         K    10      20      40      60      80
         N    10      20      40      60      80
     NB
      1     12.4    14.7    12.9    12.0    11.7
      8      7.2     9.6    10.7    10.8    10.8
 

     ZUNMBR with VECT = 'P', SIDE = 'R', TRANS = 'N', M =    80

         K    10      20      40      60      80
         N    10      20      40      60      80
     NB
      1     15.4    12.6    11.9    11.8    11.8
      8      9.2    10.7    11.0    11.1    11.2
 

     ZUNMBR with VECT = 'P', SIDE = 'R', TRANS = 'C', M =    20

         K    10      20      40      60      80
         N    10      20      40      60      80
     NB
      1     12.4    14.7    12.9    12.0    11.6
      8      7.0     9.6    10.7    10.8    10.8
 

     ZUNMBR with VECT = 'P', SIDE = 'R', TRANS = 'C', M =    80

         K    10      20      40      60      80
         N    10      20      40      60      80
     NB
      1     15.3    12.6    12.0    11.3    11.8
      8      9.7    10.6    10.9    11.1    11.2
 
 End of tests
 Total time used =       157.37 seconds
 Note: IEEE floating-point exception flags raised: 
    Inexact;  Underflow; 
 See the Numerical Computation Guide, ieee_flags(3M) 
